Presets Service:-
-------------------------

global_fault_frequency:-
-------------------
Post: http://localhost:8085/presets/globalFaultFrequency
---------------------------------------------------------

[
	{
		"customerAccount": "77777",
		"ffSetName": "set 89 global ",
		"ffName": "set 89 f1 GLB",
		"ffSetDesc": "set 89 global desc",
		"ffValue": 0.0,
		"ffUnit": "Hz"
	},
	{
		"customerAccount": "77777",
		"ffSetName": "set 89 global ",
		"ffName": "set 89 f2 GLB",
		"ffSetDesc": "set 89 global desc",
		"ffValue": 0.0,
		"ffUnit": "Orders"
	}
]

O/P:- {"outcome":"New Global Fault Frequencies created successfully."}

Put:- http://localhost:8085/presets/globalFaultFrequency
---------------------------------------------------------

[
	{
		"customerAccount": "77777",
		"ffSetName": "set 88 GLB",
		"ffName": "set 92 f1 GLB",
		"ffSetDesc": "set 88 global desc",
		"ffValue": 0.0,
		"ffUnit": "Hz",
		"ffSetId": "3ff42643-8f20-44a3-b89d-bacc5a11d40a",
		"ffId": "db1d1ea8-964c-4cda-83d2-aa53ce4ba8bf"
	}
]

O/P:-
{"outcome":"Updated Global Fault Frequencies successfully."}

GET:- http://localhost:8085/presets/globalFaultFrequency?customerAccount=77777
-------------------------------------------------------------------------------
O/P:- 
{
	"customerAccount": "77777",
	"globalFaultFrequencies": [
		{
			"customerAccount": "77777",
			"ffSetId": "0378e0c7-fed1-44e9-896a-0cf138082f83",
			"ffId": "15707988-66a9-4db1-9520-3e2d5b663a11",
			"ffSetName": "Test SetName1",
			"ffName": "Test Name1",
			"ffSetDesc": "Test Desc",
			"ffValue": 1,
			"ffUnit": "Test ffUnit"
		},
		{
			"customerAccount": "77777",
			"ffSetId": "0378e0c7-fed1-44e9-896a-0cf138082f83",
			"ffId": "e75526d9-247e-4c5f-8454-8b0ed3ebc5b5",
			"ffSetName": "Test SetName1",
			"ffName": "Test Name1",
			"ffSetDesc": "Test Desc",
			"ffValue": 1,
			"ffUnit": "Test ffUnit"
		}
	],
	"outcome": "GET worked successfully."
}

GET:- http://localhost:8085/presets/globalFaultFrequency?customerAccount=77777&ffSetId=0378e0c7-fed1-44e9-896a-0cf138082f83
-------------------------------------------------------------------------------------------------------
O/P:- 
{
"customerAccount": "77777",
"ffSetName": "0378e0c7-fed1-44e9-896a-0cf138082f83",
"globalFaultFrequencies": [
{
"customerAccount": "77777",
"ffSetId": "0378e0c7-fed1-44e9-896a-0cf138082f83",
"ffId": "15707988-66a9-4db1-9520-3e2d5b663a11",
"ffSetName": "Test SetName1",
"ffName": "Test Name1",
"ffSetDesc": "Test Desc",
"ffValue": 1,
"ffUnit": "Test ffUnit"
},
{
"customerAccount": "77777",
"ffSetId": "0378e0c7-fed1-44e9-896a-0cf138082f83",
"ffId": "e75526d9-247e-4c5f-8454-8b0ed3ebc5b5",
"ffSetName": "Test SetName1",
"ffName": "Test Name1",
"ffSetDesc": "Test Desc",
"ffValue": 1,
"ffUnit": "Test ffUnit"
}
],
"outcome": "GET worked successfully."
}

GET:- http://localhost:8085/presets/globalFaultFrequency?customerAccount=77777&ffSetId=0378e0c7-fed1-44e9-896a-0cf138082f83&ffId=15707988-66a9-4db1-9520-3e2d5b663a11
---------------------------------------------------------------------------------------------------------------------------
O/P:- 
{
"customerAccount": "77777",
"ffSetId": "0378e0c7-fed1-44e9-896a-0cf138082f83",
"ffId": "15707988-66a9-4db1-9520-3e2d5b663a11",
"globalFaultFrequencies": [
{
"customerAccount": "77777",
"ffSetId": "0378e0c7-fed1-44e9-896a-0cf138082f83",
"ffId": "15707988-66a9-4db1-9520-3e2d5b663a11",
"ffSetName": "Test SetName1",
"ffName": "Test Name1",
"ffSetDesc": "Test Desc",
"ffValue": 1,
"ffUnit": "Test ffUnit"
}
],
"outcome": "GET worked successfully."
}

DELETE:- http://localhost:8085/presets/globalFaultFrequency
------------------------------------------------------------
[
	{
		"customerAccount": "77777",
		"ffSetName": "set 88 GLB",
		"ffName": "set 92 f1 GLB",
		"ffSetDesc": "set 88 global desc",
		"ffValue": 0.0,
		"ffUnit": "Hz",
		"ffSetId": "3ff42643-8f20-44a3-b89d-bacc5a11d40a",
		"ffId": "db1d1ea8-964c-4cda-83d2-aa53ce4ba8bf"
	}
]

O/P:- {"outcome":"Deleted Global Fault Frequencies successfully."}


site_fault_frequency:-
-------------------
Post:
http://localhost:8085/presets/siteFaultFrequency
-----------------------------------------------
[
	{
		"customerAccount": "77777",
		"siteName": "UPTIME SITE 1",
		"ffSetName": "Set name 55",
		"ffName": "fname123",
		"ffSetDesc": "Set name 55 desc",
		"ffValue": 0.0,
		"ffUnit": "RPM",
		"siteId": "7ac748c0-afca-400c-a315-53c94a83aa67"
	},
	{
		"customerAccount": "77777",
		"siteName": "UPTIME SITE 1",
		"ffSetName": "Set name 55",
		"ffName": "fname1232",
		"ffSetDesc": "Set name 55 desc",
		"ffValue": 0.0,
		"ffUnit": "Hz",
		"siteId": "7ac748c0-afca-400c-a315-53c94a83aa67"
	}
]


O/P : {"outcome":"New Site Fault Frequencies created successfully."}

PUT:-
http://localhost:8085/presets/siteFaultFrequency

[
	{
		"customerAccount": "77777",
		"siteName": "UPTIME SITE 1",
		"ffSetName": "SetName 55",
		"ffName": "f551",
		"ffSetDesc": "SetName 55 desc",
		"ffValue": 0.0,
		"ffUnit": "RPM",
		"siteId": "7ac748c0-afca-400c-a315-53c94a83aa67",
		"ffSetId": "3ff42643-8f20-44a3-b89d-bacc5a11d40a",
		"ffId": "64469795-0496-4276-89ba-cc10e54a49d8"
	}
]

Status: 200 OK
{"outcome":"Updated Site Fault Frequencies successfully."}

DELETE:-
http://localhost:8085/presets/siteFaultFrequency
[
	{
		"customerAccount": "77777",
		"ffSetName": "SetName 55",
		"ffName": "f551",
		"ffSetDesc": "SetName 55 desc",
		"ffValue": 0.0,
		"ffUnit": "RPM",
		"siteId": "7ac748c0-afca-400c-a315-53c94a83aa67",
		"ffSetId": "3ff42643-8f20-44a3-b89d-bacc5a11d40a",
		"ffId": "db1d1ea8-964c-4cda-83d2-aa53ce4ba8bf"
	}
]

Status: 404 Not Found
{"outcome":"Site Fault Frequencies not found to update."}


GET:-http://localhost:8085/presets/siteFaultFrequency?customerAccount=77777&siteId=f7d7ea4e-cf69-4e20-a36e-813dbb7309ef&ffSetId=d7b688e5-856e-4d08-9790-5e1e375de827&ffId=319307db-9b73-496a-a4fe-2d5b224deb9d
-----------------------------------------------------------------------------------------------------------------------------------------
{
	"customerAccount": "77777",
	"siteId": "f7d7ea4e-cf69-4e20-a36e-813dbb7309ef",
	"ffSetId": "d7b688e5-856e-4d08-9790-5e1e375de827",
	"ffId": "319307db-9b73-496a-a4fe-2d5b224deb9d",
	"siteFaultFrequencies": [
		{
			"customerAccount": "77777",
			"siteId": "f7d7ea4e-cf69-4e20-a36e-813dbb7309ef",
			"ffSetId": "d7b688e5-856e-4d08-9790-5e1e375de827",
			"ffId": "319307db-9b73-496a-a4fe-2d5b224deb9d",
			"siteName": "Test Site1",
			"ffSetName": "Test SetName1",
			"ffName": "Test Name1",
			"ffSetDesc": "Test Desc",
			"ffValue": 1,
			"ffUnit": "Test ffUnit"
		}
	],
	"outcome": "GET worked successfully."
}

GET:- http://localhost:8085/presets/siteFaultFrequency?customerAccount=77777&siteId=f7d7ea4e-cf69-4e20-a36e-813dbb7309ef&ffSetId=d7b688e5-856e-4d08-9790-5e1e375de827
--------------------------------------------------------------------------------------------------------------------------
O/P:-
{
	"customerAccount": "77777",
	"siteId": "f7d7ea4e-cf69-4e20-a36e-813dbb7309ef",
	"ffSetId": "d7b688e5-856e-4d08-9790-5e1e375de827",
	"siteFaultFrequencies": [
		{
			"customerAccount": "77777",
			"siteId": "f7d7ea4e-cf69-4e20-a36e-813dbb7309ef",
			"ffSetId": "d7b688e5-856e-4d08-9790-5e1e375de827",
			"ffId": "319307db-9b73-496a-a4fe-2d5b224deb9d",
			"siteName": "Test Site1",
			"ffSetName": "Test SetName1",
			"ffName": "Test Name1",
			"ffSetDesc": "Test Desc",
			"ffValue": 1,
			"ffUnit": "Test ffUnit"
		}
	],
	"outcome": "GET worked successfully."
}


GET:- http://localhost:8085/presets/siteFaultFrequency?customerAccount=77777&siteId=f7d7ea4e-cf69-4e20-a36e-813dbb7309ef
--------------------------------------------------------------------------------------------------------------------------
O/P:-
{
	"customerAccount": "77777",
	"siteId": "f7d7ea4e-cf69-4e20-a36e-813dbb7309ef",
	"siteFaultFrequencies": [
		{
			"customerAccount": "77777",
			"siteId": "f7d7ea4e-cf69-4e20-a36e-813dbb7309ef",
			"ffSetId": "d7b688e5-856e-4d08-9790-5e1e375de827",
			"ffId": "319307db-9b73-496a-a4fe-2d5b224deb9d",
			"siteName": "Test Site1",
			"ffSetName": "Test SetName1",
			"ffName": "Test Name1",
			"ffSetDesc": "Test Desc",
			"ffValue": 1,
			"ffUnit": "Test ffUnit"
		},
		{
			"customerAccount": "77777",
			"siteId": "f7d7ea4e-cf69-4e20-a36e-813dbb7309ef",
			"ffSetId": "f40035e0-5a43-4804-870b-682888052088",
			"ffId": "0ec713b0-f1e7-41fd-8bf3-a78d04695d2f",
			"siteName": "Test Site1",
			"ffSetName": "Test SetName1",
			"ffName": "Test Name1",
			"ffSetDesc": "Test Desc",
			"ffValue": 1,
			"ffUnit": "Test ffUnit"
		}
	],
	"outcome": "GET worked successfully."
}

GET:-
http://localhost:8085/presets/siteFaultFrequency?customerAccount=77776&&siteId=f7d7ea4e-cf69-4e20-a36e-813dbb7309e
-------------------------------------------------------------------------
Status: 404 Not Found
{"outcome":"Site Fault Frequencies not found."}


global_tachometer:-
--------------------
POST:-http://localhost:8085/presets/globalTachometer
-----------------------------------------------------
{
  "customerAccount":"customer_001",
  "tachName":"TachName1",
  "tachReferenceRpm":3,
  "tachType":"TachType1"
}
O/P:- Status 200 OK
{"outcome":"New GlobalTachometers created successfully."}

PUT:-http://localhost:8085/presets/globalTachometer
-----------------------------------------------------
{
  "customerAccount":"customer_001",
  "tachName":"TachName1",
  "tachReferenceRpm":3,
  "tachType":"TachType1",
  "tachId":"c2539356-c469-4ac9-bbd9-912d060e4928"
}
O/P:- Status 200 OK
{"outcome":"Updated Global Tachometers successfully."}

GET:- http://localhost:8085/presets/globalTachometer?customerAccount=customer_001&tachId=6404cf40-9c18-4689-8ab6-8d74ad96f42a
 O/P:- Status 200 OK
{
	"customerAccount": "customer_001",
	"tachId": "6404cf40-9c18-4689-8ab6-8d74ad96f42a",
	"globalTachometers": [
		{
			"customerAccount": "customer_001",
			"tachId": "6404cf40-9c18-4689-8ab6-8d74ad96f42a",
			"tachName": "TachName1",
			"tachType": "TachType1",
			"tachReferenceRpm": 3
		}
	],
	"outcome": "GET worked successfully."
}

GET:- http://localhost:8085/presets/globalTachometer?customerAccount=customer_001

O/P:- Status 200 OK
{
	"customerAccount": "customer_001",
	"globalTachometers": [
		{
			"customerAccount": "customer_001",
			"tachId": "6404cf40-9c18-4689-8ab6-8d74ad96f42a",
			"tachName": "TachName1",
			"tachType": "TachType1",
			"tachReferenceRpm": 3
		}
	],
	"outcome": "GET worked successfully."
}

GET:- http://localhost:8085/presets/globalTachometer?customerAccount=Customer_002
O/P:-  404 Not Found

{"outcome":"Global Tachometers not found."}

DELETE:- http://localhost:8085/presets/globalTachometer
{
  "customerAccount":"customer_001",
  "tachName":"TachName1",
  "tachReferenceRpm":3,
  "tachType":"TachType1",
  "tachId":"c2539356-c469-4ac9-bbd9-912d060e4928"
}
O/P:- 200 OK
{"outcome":"Deleted Global Tachometers successfully."}

DELETE:- http://localhost:8085/presets/globalTachometer
{
  "customerAccount":"customer_001",
  "tachName":"TachName1",
  "tachReferenceRpm":3,
  "tachType":"TachType1",
  "tachId":"c2539356-c469-4ac9-bbd9-912d060e4928"
}
O/P:- 404 Not Found
{"outcome":"No Global Tachometers found to delete."}

site_tachometer:-
--------------------

POST:- http://localhost:8085/presets/siteTachometer
--------------------------------------------------
{
  "customerAccount":"customer_001",
  "tachName":"TachName1",
  "siteId":54964cf6-cc29-4796-aa27-17b6ce01a75f,
  "tachReferenceRpm":3,
  "tachType":"TachType1"
}

O/P:- Status:- 200 OK

{"outcome":"New SiteTachometers created successfully."}

PUT:-
 http://localhost:8085/presets/siteTachometer
--------------------------------------------------
{
  "customerAccount":"customer_001",
  "tachName":"TachName1",
  "siteId":54964cf6-cc29-4796-aa27-17b6ce01a75f,
  "tachId":0c8ed9cc-916d-421d-ad7c-3784f1cae4ea,
  "tachReferenceRpm":3,
  "tachType":"TachType1"
}

O/P:
404 Not Found

{"outcome":"Site Tachometers not found to update."}


Put:- http://localhost:8085/presets/siteTachometer
--------------------------------------------------
{
  "customerAccount":"customer_001",
  "tachName":"TachName1",
  "siteId":54964cf6-cc29-4796-aa27-17b6ce01a75f,
  "tachId":0c8ed9cc-916d-421d-ad7c-3784f1cae4ea,
  "tachReferenceRpm":3,
  "tachType":"TachType1"
}

O/P:- Status:- 200 OK

{"outcome":"Updated Site Tachometers successfully."}

GET:- http://localhost:8085/presets/siteTachometer?customerAccount=customer_001&siteId=54964cf6-cc29-4796-aa27-17b6ce01a75f&tachId=0c8ed9cc-916d-421d-ad7c-3784f1cae4ea
O/P:-
200 OK

{
	"customerAccount": "customer_001",
	"siteId": "54964cf6-cc29-4796-aa27-17b6ce01a75f",
	"tachId": "0c8ed9cc-916d-421d-ad7c-3784f1cae4ea",
	"siteTachometers": [
		{
			"customerAccount": "customer_001",
			"siteId": "54964cf6-cc29-4796-aa27-17b6ce01a75f",
			"tachId": "0c8ed9cc-916d-421d-ad7c-3784f1cae4ea",
			"tachName": "TachName1",
			"tachReferenceRpm": 3,
			"tachType": "TachType1"
		}
	],
	"outcome": "GET worked successfully."
}

GET:- http://localhost:8085/presets/siteTachometer?customerAccount=customer_001&siteId=54964cf6-cc29-4796-aa27-17b6ce01a75f
O/P:-
200 OK
{
	"customerAccount": "customer_001",
	"siteId": "54964cf6-cc29-4796-aa27-17b6ce01a75f",
	"siteTachometers": [
		{
			"customerAccount": "customer_001",
			"siteId": "54964cf6-cc29-4796-aa27-17b6ce01a75f",
			"tachId": "0c8ed9cc-916d-421d-ad7c-3784f1cae4ea",
			"tachName": "TachName1",
			"tachReferenceRpm": 3,
			"tachType": "TachType1"
		}
	],
	"outcome": "GET worked successfully."
}

GET:- http://localhost:8085/presets/siteTachometer?customerAccount=customer_001&siteName=Site Name2
O/P:-
404 Not Found

{"outcome":"Site Tachometers not found."}


DELETE:- http://localhost:8085/presets/siteTachometer

{
  "customerAccount":"customer_001",
  "tachName":"TachName1",
  "siteId":54964cf6-cc29-4796-aa27-17b6ce01a75f,
  "tachId":0c8ed9cc-916d-421d-ad7c-3784f1cae4ea,
  "tachReferenceRpm":3,
  "tachType":"TachType1"
}

O/P:-
404 Not Found

 {"outcome":"No Site Tachometers found to delete."}

DELETE - http://localhost:8085/presets/siteTachometer
{
  "customerAccount":"customer_001",
  "tachName":"TachName1",
  "siteId":54964cf6-cc29-4796-aa27-17b6ce01a75f,
  "tachId":0c8ed9cc-916d-421d-ad7c-3784f1cae4ea,
  "tachReferenceRpm":3,
  "tachType":"TachType1"
}

O/P:- 200 OK

{"outcome":"Deleted Site Tachometers successfully."}


GlobalApAlSets:-
-------------------
POST:-http://localhost:8085/presets/globalApAlSets
{
"customerAccount": "77777",
"apSetName":"apSetName2",
"alSetName":"alSetName",
"paramName":"paramName",
"demodHighPass":9,
"demodLowPass":2,
"dwell":5,
"fmax":8,
"frequencyUnits":"frequencyUnits",
"highAlert":6,
"highAlertActive":true,
"highFault":6,
"highFaultActive":true,
"demod":true,
"lowAlert":2,
"lowAlertActive":true,
"lowFault":1,
"lowFaultActive":true,
"maxFrequency":10,
"minFrequency":1,
"paramAmpFactor":"paramAmpFactor",
"paramType":"paramType",
"paramUnits":"paramUnits",
"period":5,
"resolution":5,
"sampleRate":5,
"sensorType":"sensorType"
}

O/P:- 
200 OK
{"outcome":"New Global ApAlSets created successfully."}

POST:-http://localhost:8085/presets/globalApAlSets
{
"customerAccount": "77777",
"apSetName":"apSetName2",
"alSetName":"alSetName",
"paramName":"paramName",
"demodHighPass":9,
"demodLowPass":2,
"dwell":5,
"fmax":8,
"frequencyUnits":"frequencyUnits",
"highAlert":6,
"highAlertActive":true,
"highFault":6,
"highFaultActive":true,
"demod":true,
"lowAlert":2,
"lowAlertActive":true,
"lowFault":1,
"lowFaultActive":true,
"maxFrequency":10,
"minFrequency":1,
"paramAmpFactor":"paramAmpFactor",
"paramType":"paramType",
"paramUnits":"paramUnits",
"period":5,
"resolution":5,
"sampleRate":5,
"sensorType":"sensorType"
}

O/P:- 
400 Bad Request

{"outcome":"Global ApAlSets already exist by the given PK."}

PUT:-http://localhost:8085/presets/globalApAlSets
{
"customerAccount": "77777",
"apSetName":"apSetName2",
"alSetName":"alSetName",
"apSetId":8e96ea38-1371-4144-b667-0acd6ed40f9c,
"alSetId":84c43cdb-e9a7-4771-b3be-7587458774ed,
"paramName":"paramName",
"demodHighPass":9,
"demodLowPass":2,
"dwell":5,
"fmax":8,
"frequencyUnits":"frequencyUnits",
"highAlert":6,
"highAlertActive":true,
"highFault":6,
"highFaultActive":true,
"demod":true,
"lowAlert":2,
"lowAlertActive":true,
"lowFault":1,
"lowFaultActive":true,
"maxFrequency":10,
"minFrequency":1,
"paramAmpFactor":"paramAmpFactor",
"paramType":"paramType",
"paramUnits":"paramUnits",
"period":5,
"resolution":5,
"sampleRate":5,
"sensorType":"sensorType"
}

O/P:- 
200 OK

{"outcome":"Updated Global ApAlSets successfully."}


PUT:-http://localhost:8085/presets/globalApAlSets
{
"customerAccount": "77777",
"apSetName":"apSetName2",
"alSetName":"alSetName",
"apSetId":8e96ea38-1371-4144-b667-0acd6ed50f9c,
"alSetId":84c43cdb-e9a7-4771-b3be-7587458774ed,
"paramName":"paramName",
"demodHighPass":9,
"demodLowPass":2,
"dwell":5,
"fmax":8,
"frequencyUnits":"frequencyUnits",
"highAlert":6,
"highAlertActive":true,
"highFault":6,
"highFaultActive":true,
"demod":true,
"lowAlert":2,
"lowAlertActive":true,
"lowFault":1,
"lowFaultActive":true,
"maxFrequency":10,
"minFrequency":1,
"paramAmpFactor":"paramAmpFactor",
"paramType":"paramType",
"paramUnits":"paramUnits",
"period":5,
"resolution":5,
"sampleRate":5,
"sensorType":"sensorType"
}

O/P:- 
404 Not Found

{"outcome":"Global ApAlSets not found to update."}

GET:-
http://localhost:8085/presets/globalApAlSets?customerAccount=77777&apSetId=f53944b0-013c-4d2b-9a68-6c3eb945aea5&alSetId=4c1552d0-be54-4ad5-b7bb-dc437152067b&paramName=paramName

O/P
200 OK

{
	"customerAccount": "77777",
	"apSetId": "f53944b0-013c-4d2b-9a68-6c3eb945aea5",
	"alSetId": "4c1552d0-be54-4ad5-b7bb-dc437152067b",
	"paramName": "paramName",
	"globalApAlSets": [
		{
			"customerAccount": "77777",
			"apSetId": "f53944b0-013c-4d2b-9a68-6c3eb945aea5",
			"alSetId": "4c1552d0-be54-4ad5-b7bb-dc437152067b",
			"paramName": "paramName",
			"apSetName": "apSetName2",
			"alSetName": "alSetName",
			"demodHighPass": 9,
			"demodLowPass": 2,
			"dwell": 5,
			"fmax": 8,
			"frequencyUnits": "frequencyUnits",
			"highAlert": 6,
			"highAlertActive": true,
			"highFault": 6,
			"highFaultActive": true,
			"demod": true,
			"lowAlert": 2,
			"lowAlertActive": false,
			"lowFault": 1,
			"lowFaultActive": true,
			"maxFrequency": 10,
			"minFrequency": 1,
			"paramAmpFactor": "paramAmpFactor",
			"paramType": "paramType",
			"paramUnits": "paramUnits",
			"period": 5,
			"resolution": 5,
			"sampleRate": 5,
			"sensorType": "sensorType"
		}
	],
	"outcome": "GET worked successfully."
}

GET:-
http://localhost:8085/presets/globalApAlSets?customerAccount=77777&apSetId=f53944b0-013c-4d2b-9a68-6c3eb945aea5&alSetId=4c1552d0-be54-4ad5-b7bb-dc437152067b

O/P
200 OK

{
	"customerAccount": "77777",
	"apSetId": "f53944b0-013c-4d2b-9a68-6c3eb945aea5",
	"alSetId": "4c1552d0-be54-4ad5-b7bb-dc437152067b",
	"globalApAlSets": [
		{
			"customerAccount": "77777",
			"apSetId": "f53944b0-013c-4d2b-9a68-6c3eb945aea5",
			"alSetId": "4c1552d0-be54-4ad5-b7bb-dc437152067b",
			"paramName": "paramName",
			"apSetName": "apSetName2",
			"alSetName": "alSetName",
			"demodHighPass": 9,
			"demodLowPass": 2,
			"dwell": 5,
			"fmax": 8,
			"frequencyUnits": "frequencyUnits",
			"highAlert": 6,
			"highAlertActive": true,
			"highFault": 6,
			"highFaultActive": true,
			"demod": true,
			"lowAlert": 2,
			"lowAlertActive": false,
			"lowFault": 1,
			"lowFaultActive": true,
			"maxFrequency": 10,
			"minFrequency": 1,
			"paramAmpFactor": "paramAmpFactor",
			"paramType": "paramType",
			"paramUnits": "paramUnits",
			"period": 5,
			"resolution": 5,
			"sampleRate": 5,
			"sensorType": "sensorType"
		}
	],
	"outcome": "GET worked successfully."
}

GET:-
http://localhost:8085/presets/globalApAlSets?customerAccount=77777&apSetId=f53944b0-013c-4d2b-9a68-6c3eb945aea5

O/P
200 OK

{
	"customerAccount": "77777",
	"apSetId": "f53944b0-013c-4d2b-9a68-6c3eb945aea5",
	"globalApAlSets": [
		{
			"customerAccount": "77777",
			"apSetId": "f53944b0-013c-4d2b-9a68-6c3eb945aea5",
			"alSetId": "4c1552d0-be54-4ad5-b7bb-dc437152067b",
			"paramName": "paramName",
			"apSetName": "apSetName2",
			"alSetName": "alSetName",
			"demodHighPass": 9,
			"demodLowPass": 2,
			"dwell": 5,
			"fmax": 8,
			"frequencyUnits": "frequencyUnits",
			"highAlert": 6,
			"highAlertActive": true,
			"highFault": 6,
			"highFaultActive": true,
			"demod": true,
			"lowAlert": 2,
			"lowAlertActive": false,
			"lowFault": 1,
			"lowFaultActive": true,
			"maxFrequency": 10,
			"minFrequency": 1,
			"paramAmpFactor": "paramAmpFactor",
			"paramType": "paramType",
			"paramUnits": "paramUnits",
			"period": 5,
			"resolution": 5,
			"sampleRate": 5,
			"sensorType": "sensorType"
		}
	],
	"outcome": "GET worked successfully."
}

GET:-

http://localhost:8085/presets/globalApAlSets?customerAccount=UPTIME&apSetIds=d1aa15fc-05e0-4775-98ee-21f2a8afec99, 1b45b808-ae0b-4e4e-a342-b37e9ccf35a2

O/P
200 OK

{
    "customerAccount": "UPTIME",
    "apSetIds": "d1aa15fc-05e0-4775-98ee-21f2a8afec99, 1b45b808-ae0b-4e4e-a342-b37e9ccf35a2",
    "GlobalApAlSets": [
        {
            "customerAccount": "UPTIME",
            "apSetId": "1b45b808-ae0b-4e4e-a342-b37e9ccf35a2",
            "alSetId": "3eeeacf8-2f2e-412f-848f-3e3a8c6d77c2",
            "paramName": "Wave Peak",
            "apSetName": "UTS Global Accel",
            "alSetName": "AL Set 1",
            "demodHighPass": 0.0,
            "demodLowPass": 0.0,
            "dwell": 0,
            "fmax": 977,
            "highAlert": 0.0,
            "highAlertActive": false,
            "highFault": 0.0,
            "highFaultActive": false,
            "demod": false,
            "lowAlert": 0.0,
            "lowAlertActive": false,
            "lowFault": 0.0,
            "lowFaultActive": false,
            "maxFrequency": -1.0,
            "minFrequency": -1.0,
            "paramAmpFactor": "Peak",
            "paramType": "Waveform True Peak",
            "paramUnits": "Gs",
            "period": 1.6384,
            "resolution": 1600,
            "sampleRate": 2500.0,
            "sensorType": "Acceleration"
        },
        {
            "customerAccount": "UPTIME",
            "apSetId": "d1aa15fc-05e0-4775-98ee-21f2a8afec99",
            "alSetId": "ba9aa499-991a-49e2-a630-8ba25e776725",
            "paramName": "Voltage",
            "apSetName": "UTS Global Battery",
            "alSetName": "Voltage 1",
            "demodHighPass": 0.0,
            "demodLowPass": 0.0,
            "dwell": 1,
            "fmax": 0,
            "highAlert": 7.0,
            "highAlertActive": true,
            "highFault": 7.2,
            "highFaultActive": true,
            "demod": false,
            "lowAlert": 3.5,
            "lowAlertActive": true,
            "lowFault": 3.0,
            "lowFaultActive": true,
            "maxFrequency": 0.0,
            "minFrequency": 0.0,
            "paramUnits": "V",
            "period": 0.0,
            "resolution": 0,
            "sampleRate": 0.0,
            "sensorType": "Voltage"
        }
    ],
    "outcome": "GET worked successfully."
}

DELETE:- http://localhost:8085/presets/globalApAlSets
{
"customerAccount": "77777",
"apSetName":"apSetName2",
"alSetName":"alSetName",
"paramName":"paramName",
"demodHighPass":9,
"demodLowPass":2,
"dwell":5,
"fmax":8,
"frequencyUnits":"frequencyUnits",
"highAlert":6,
"highAlertActive":true,
"highFault":6,
"highFaultActive":true,
"demod":true,
"lowAlert":2,
"lowAlertActive":true,
"lowFault":1,
"lowFaultActive":true,
"maxFrequency":10,
"minFrequency":1,
"paramAmpFactor":"paramAmpFactor",
"paramType":"paramType",
"paramUnits":"paramUnits",
"period":5,
"resolution":5,
"sampleRate":5,
"sensorType":"sensorType"
}

O/P:-
200 OK
{"outcome":"Deleted Global ApAlSets successfully."}

DELETE:- http://localhost:8085/presets/globalApAlSets
{
"customerAccount": "77777",
"apSetName":"apSetName2",
"alSetName":"alSetName",
"apSetId":8e96ea38-1371-4144-b667-0acd6ed40f9c,
"alSetId":84c43cdb-e9a7-4771-b3be-7587458774ed,
"paramName":"paramName",
"demodHighPass":9,
"demodLowPass":2,
"dwell":5,
"fmax":8,
"frequencyUnits":"frequencyUnits",
"highAlert":6,
"highAlertActive":true,
"highFault":6,
"highFaultActive":true,
"demod":true,
"lowAlert":2,
"lowAlertActive":true,
"lowFault":1,
"lowFaultActive":true,
"maxFrequency":10,
"minFrequency":1,
"paramAmpFactor":"paramAmpFactor",
"paramType":"paramType",
"paramUnits":"paramUnits",
"period":5,
"resolution":5,
"sampleRate":5,
"sensorType":"sensorType"
}

O/P:-
404 Not Found
{"outcome":"No Global ApAlSets found to delete."}

siteApAlSets:-
-----------------

POST:- http://localhost:8085/presets/siteApAlSets

{
"customerAccount": "77777",                          
"siteId":"6102feaa-98e4-417b-a6b6-939af94e8194",                      
"apSetName":"apSetName Test 1",   
"alSetName":"alSetName Test 1",
"paramName":"paramName Test 1",    
"demodHighPass":9,      
"demodLowPass":2,       
"dwell":5,     
"fmax":8,    
"frequencyUnits":"frequency Test Unit 1", 
"highAlert":6,  
"highAlertActive":true,  
"highFault":6,  
"highFaultActive":true,  
"demod":true,  
"lowAlert":2,  
"lowAlertActive":true,
"lowFault":1,  
"lowFaultActive":true,  
"maxFrequency":10,                                                                          
"minFrequency":1,                      
"paramAmpFactor":"paramAmp Test Factor 1",   
"paramType":"param Test Type 1",     
"paramUnits":"param Test Units 1",    
"period":5,      
"resolution":5,                                                                 
"sampleRate":5,                                                                 
"sensorType":"sensorTest Type 1"                                                       
}
O/P:-

200 OK
{"outcome":"New Site ApAlSets created successfully."}

POST:- http://localhost:8085/presets/siteApAlSets

{
{
"customerAccount": "77777",                          
"siteId":"",                      
"apSetName":"apSetName Test 1",   
"alSetName":"alSetName Test 1",
"paramName":"paramName Test 1",    
"demodHighPass":9,      
"demodLowPass":2,       
"dwell":5,     
"fmax":8,    
"frequencyUnits":"frequency Test Unit 1", 
"highAlert":6,  
"highAlertActive":true,  
"highFault":6,  
"highFaultActive":true,  
"demod":true,  
"lowAlert":2,  
"lowAlertActive":true,
"lowFault":1,  
"lowFaultActive":true,  
"maxFrequency":10,                                                                          
"minFrequency":1,                      
"paramAmpFactor":"paramAmp Test Factor 1",   
"paramType":"param Test Type 1",     
"paramUnits":"param Test Units 1",    
"period":5,      
"resolution":5,                                                                 
"sampleRate":5,                                                                 
"sensorType":"sensorTest Type 1"                                                       
}
O/P:-

400 Bad Request

{"outcome":"insufficient and/or invalid data given in json"}

PUT:-  http://localhost:8085/presets/siteApAlSets

{
"customerAccount": "77777",
"siteName":"TEST SITE 001",
"siteId":"54964cf6-cc29-4796-aa27-17b6ce01a75f",
"apSetId":"31f01b7b-f9f3-46f1-9b76-ad77b35e87f5",
"alSetId":"668e4093-b882-4c6a-b9f5-a4af8b8fa47f",
"apSetName":"apSetName2",
"alSetName":"alSetName",
"paramName":"paramName",
"demodHighPass":8,
"demodLowPass":5,
"dwell":10,
"fmax":2,
"frequencyUnits":"frequencyUnits",
"highAlert":8,
"highAlertActive":true,
"highFault":9,
"highFaultActive":true,
"demod":true,
"lowAlert":2,
"lowAlertActive":true,
"lowFault":1,
"lowFaultActive":true,
"maxFrequency":9,
"minFrequency":0,
"paramAmpFactor":"paramAmpFactor",
"paramType":"paramType",
"paramUnits":"paramUnits",
"period":5,
"resolution":5,
"sampleRate":3,
"sensorType":"sensorType"
}
O/P:-

200 OK

{"outcome":"Updated Site ApAlSets successfully."}

PUT:-  http://localhost:8085/presets/siteApAlSets

{
"customerAccount": "77777",
"siteName":"TEST SITE 001",
"siteId":"54964cf6-cc29-4796-aa27-17b6ce01a75f",
"apSetId":"31f01b7b-f9f3-46f1-9b76-ad77b35e87f5",
"alSetId":"668e4093-b882-4c6a-b9f5-a4af8b8fa47f",
"apSetName":"apSetName2",
"alSetName":"alSetName",
"paramName":"paramName",
"demodHighPass":8,
"demodLowPass":5,
"dwell":10,
"fmax":2,
"frequencyUnits":"frequencyUnits",
"highAlert":8,
"highAlertActive":true,
"highFault":9,
"highFaultActive":true,
"demod":true,
"lowAlert":2,
"lowAlertActive":true,
"lowFault":1,
"lowFaultActive":true,
"maxFrequency":9,
"minFrequency":0,
"paramAmpFactor":"paramAmpFactor",
"paramType":"paramType",
"paramUnits":"paramUnits",
"period":5,
"resolution":5,
"sampleRate":3,
"sensorType":"sensorType"
}
O/P:-

404 Not Found

{"outcome":"Site ApAlSets not found to update."}

GET:-  http://localhost:8085/presets/siteApAlSets?customerAccount=77777&siteId=54964cf6-cc29-4796-aa27-17b6ce01a75f&apSetId=31f01b7b-f9f3-46f1-9b76-ad77b35e87f5&alSetId=668e4093-b882-4c6a-b9f5-a4af8b8fa47f&paramName=paramName

O/P:-
200 OK

{
	"customerAccount": "77777",
	"siteId": "54964cf6-cc29-4796-aa27-17b6ce01a75f",
	"apSetId": "31f01b7b-f9f3-46f1-9b76-ad77b35e87f5",
	"alSetId": "668e4093-b882-4c6a-b9f5-a4af8b8fa47f",
	"paramName": "paramName",
	"siteApAlSets": [
		{
			"customerAccount": "77777",
			"siteId": "54964cf6-cc29-4796-aa27-17b6ce01a75f",
			"apSetId": "31f01b7b-f9f3-46f1-9b76-ad77b35e87f5",
			"alSetId": "668e4093-b882-4c6a-b9f5-a4af8b8fa47f",
			"paramName": "paramName",
			"demodHighPass": 8,
			"demodLowPass": 5,
			"dwell": 10,
			"fmax": 2,
			"frequencyUnits": "frequencyUnits",
			"highAlert": 8,
			"highAlertActive": true,
			"highFault": 9,
			"highFaultActive": true,
			"demod": true,
			"lowAlert": 2,
			"lowAlertActive": true,
			"lowFault": 1,
			"lowFaultActive": true,
			"maxFrequency": 9,
			"minFrequency": 0,
			"paramAmpFactor": "paramAmpFactor",
			"paramType": "paramType",
			"paramUnits": "paramUnits",
			"period": 5,
			"resolution": 5,
			"sampleRate": 3,
			"sensorType": "sensorType"
		}
	],
	"outcome": "GET worked successfully."
}

GET:-  http://localhost:8085/presets/siteApAlSets?customerAccount=77777&siteId=54964cf6-cc29-4796-aa27-17b6ce01a75f&apSetId=31f01b7b-f9f3-46f1-9b76-ad77b35e87f5&alSetId=668e4093-b882-4c6a-b9f5-a4af8b8fa47f

O/P:-
200 OK

{
	"customerAccount": "77777",
	"siteId": "54964cf6-cc29-4796-aa27-17b6ce01a75f",
	"apSetId": "31f01b7b-f9f3-46f1-9b76-ad77b35e87f5",
	"alSetId": "668e4093-b882-4c6a-b9f5-a4af8b8fa47f",
	"siteApAlSets": [
		{
			"customerAccount": "77777",
			"siteId": "54964cf6-cc29-4796-aa27-17b6ce01a75f",
			"apSetId": "31f01b7b-f9f3-46f1-9b76-ad77b35e87f5",
			"alSetId": "668e4093-b882-4c6a-b9f5-a4af8b8fa47f",
			"paramName": "paramName",
			"demodHighPass": 8,
			"demodLowPass": 5,
			"dwell": 10,
			"fmax": 2,
			"frequencyUnits": "frequencyUnits",
			"highAlert": 8,
			"highAlertActive": true,
			"highFault": 9,
			"highFaultActive": true,
			"demod": true,
			"lowAlert": 2,
			"lowAlertActive": true,
			"lowFault": 1,
			"lowFaultActive": true,
			"maxFrequency": 9,
			"minFrequency": 0,
			"paramAmpFactor": "paramAmpFactor",
			"paramType": "paramType",
			"paramUnits": "paramUnits",
			"period": 5,
			"resolution": 5,
			"sampleRate": 3,
			"sensorType": "sensorType"
		}
	],
	"outcome": "GET worked successfully."
}

GET:-  http://localhost:8085/presets/siteApAlSets?customerAccount=77777&siteId=54964cf6-cc29-4796-aa27-17b6ce01a75f&apSetId=31f01b7b-f9f3-46f1-9b76-ad77b35e87f5

O/P:-
200 OK

{
	"customerAccount": "77777",
	"siteId": "54964cf6-cc29-4796-aa27-17b6ce01a75f",
	"apSetId": "31f01b7b-f9f3-46f1-9b76-ad77b35e87f5",
	"siteApAlSets": [
		{
			"customerAccount": "77777",
			"siteId": "54964cf6-cc29-4796-aa27-17b6ce01a75f",
			"apSetId": "31f01b7b-f9f3-46f1-9b76-ad77b35e87f5",
			"alSetId": "668e4093-b882-4c6a-b9f5-a4af8b8fa47f",
			"paramName": "paramName",
			"demodHighPass": 8,
			"demodLowPass": 5,
			"dwell": 10,
			"fmax": 2,
			"frequencyUnits": "frequencyUnits",
			"highAlert": 8,
			"highAlertActive": true,
			"highFault": 9,
			"highFaultActive": true,
			"demod": true,
			"lowAlert": 2,
			"lowAlertActive": true,
			"lowFault": 1,
			"lowFaultActive": true,
			"maxFrequency": 9,
			"minFrequency": 0,
			"paramAmpFactor": "paramAmpFactor",
			"paramType": "paramType",
			"paramUnits": "paramUnits",
			"period": 5,
			"resolution": 5,
			"sampleRate": 3,
			"sensorType": "sensorType"
		}
	],
	"outcome": "GET worked successfully."
}

GET:-  http://localhost:8085/presets/siteApAlSets?customerAccount=FEDEX%20EXPRESS&siteId=8b086e15-371f-4a8d-bedb-c1b67b49be3e&apSetIds=e18279d6-ef84-4d1e-8e87-8203c525bcf7,5f6c5db6-8e3b-446e-8d7f-4b8543ea5ba8

O/P:-
200 OK

{
    "customerAccount": "FEDEX EXPRESS",
    "siteId": "8b086e15-371f-4a8d-bedb-c1b67b49be3e",
    "apSetIds": "e18279d6-ef84-4d1e-8e87-8203c525bcf7,5f6c5db6-8e3b-446e-8d7f-4b8543ea5ba8",
    "SiteApAlSets": [
        {
            "customerAccount": "FEDEX EXPRESS",
            "siteId": "8b086e15-371f-4a8d-bedb-c1b67b49be3e",
            "apSetId": "5f6c5db6-8e3b-446e-8d7f-4b8543ea5ba8",
            "alSetId": "849832ce-f984-444f-81ec-90661efbad0e",
            "paramName": "Temperature RTD",
            "apSetName": "AUTO_TEMPF_RTD",
            "alSetName": "STORMX RTD TEST_TEMP_RTD_4",
            "demodHighPass": 0.0,
            "demodLowPass": 0.0,
            "dwell": 3,
            "fmax": 0,
            "highAlert": 2.0,
            "highAlertActive": true,
            "highFault": 3.0,
            "highFaultActive": true,
            "demod": false,
            "lowAlert": 1.0,
            "lowAlertActive": true,
            "lowFault": 0.0,
            "lowFaultActive": true,
            "maxFrequency": 0.0,
            "minFrequency": 0.0,
            "paramUnits": "F",
            "period": 0.0,
            "resolution": 0,
            "sampleRate": 0.0,
            "sensorType": "Temperature RTD"
        },
        {
            "customerAccount": "FEDEX EXPRESS",
            "siteId": "8b086e15-371f-4a8d-bedb-c1b67b49be3e",
            "apSetId": "5f6c5db6-8e3b-446e-8d7f-4b8543ea5ba8",
            "alSetId": "acae4578-0f13-42a9-8395-0db43318f2c0",
            "paramName": "Temperature RTD",
            "apSetName": "AUTO_TEMPF_RTD",
            "alSetName": "Default",
            "demodHighPass": 0.0,
            "demodLowPass": 0.0,
            "dwell": 1,
            "fmax": 0,
            "highAlert": 110.0,
            "highAlertActive": true,
            "highFault": 160.0,
            "highFaultActive": true,
            "demod": false,
            "lowAlert": 0.0,
            "lowAlertActive": false,
            "lowFault": 0.0,
            "lowFaultActive": false,
            "maxFrequency": 0.0,
            "minFrequency": 0.0,
            "paramUnits": "F",
            "period": 0.0,
            "resolution": 0,
            "sampleRate": 0.0,
            "sensorType": "Temperature RTD"
        },
        {
            "customerAccount": "FEDEX EXPRESS",
            "siteId": "8b086e15-371f-4a8d-bedb-c1b67b49be3e",
            "apSetId": "e18279d6-ef84-4d1e-8e87-8203c525bcf7",
            "alSetId": "518614ab-d7c5-488a-af03-344708a988b9",
            "paramName": "Overall",
            "apSetName": "Displacement",
            "alSetName": "Default",
            "demodHighPass": 0.0,
            "demodLowPass": 0.0,
            "dwell": 0,
            "fmax": 61,
            "highAlert": 0.2,
            "highAlertActive": true,
            "highFault": 0.4,
            "highFaultActive": true,
            "demod": false,
            "lowAlert": 0.0,
            "lowAlertActive": false,
            "lowFault": 0.0,
            "lowFaultActive": false,
            "maxFrequency": -1.0,
            "minFrequency": -1.0,
            "paramAmpFactor": "Peak",
            "paramType": "Total Spectral Energy",
            "paramUnits": "Gs",
            "period": 26.2144,
            "resolution": 1600,
            "sampleRate": 156.25,
            "sensorType": "Displacement"
        }
    ],
    "outcome": "GET worked successfully."
}

DELETE:- http://localhost:8085/presets/siteApAlSets

{
"customerAccount": "77777",
"siteName":"TEST SITE 001",
"siteId":"54964cf6-cc29-4796-aa27-17b6ce01a75f",
"apSetId":"31f01b7b-f9f3-46f1-9b76-ad77b35e87f5",
"alSetId":"668e4093-b882-4c6a-b9f5-a4af8b8fa47f",
"apSetName":"apSetName2",
"alSetName":"alSetName",
"paramName":"paramName",
"demodHighPass":8,
"demodLowPass":5,
"dwell":10,
"fmax":2,
"frequencyUnits":"frequencyUnits",
"highAlert":8,
"highAlertActive":true,
"highFault":9,
"highFaultActive":true,
"demod":true,
"lowAlert":2,
"lowAlertActive":true,
"lowFault":1,
"lowFaultActive":true,
"maxFrequency":9,
"minFrequency":0,
"paramAmpFactor":"paramAmpFactor",
"paramType":"paramType",
"paramUnits":"paramUnits",
"period":5,
"resolution":5,
"sampleRate":3,
"sensorType":"sensorType"
}

O/P:-
200 OK

{"outcome":"Deleted Site ApAlSets successfully."}

DELETE:- http://localhost:8085/presets/siteApAlSets

{
"customerAccount": "77777",
"siteName":"TEST SITE 001",
"siteId":"54964cf6-cc29-4796-aa27-17b6ce01a75f",
"apSetId":"31f01b7b-f9f3-46f1-9b76-ad77b35e87f5",
"alSetId":"668e4093-b882-4c6a-b9f5-a4af8b8fa47f",
"apSetName":"apSetName2",
"alSetName":"alSetName",
"paramName":"paramName",
"demodHighPass":8,
"demodLowPass":5,
"dwell":10,
"fmax":2,
"frequencyUnits":"frequencyUnits",
"highAlert":8,
"highAlertActive":true,
"highFault":9,
"highFaultActive":true,
"demod":true,
"lowAlert":2,
"lowAlertActive":true,
"lowFault":1,
"lowFaultActive":true,
"maxFrequency":9,
"minFrequency":0,
"paramAmpFactor":"paramAmpFactor",
"paramType":"paramType",
"paramUnits":"paramUnits",
"period":5,
"resolution":5,
"sampleRate":3,
"sensorType":"sensorType"
}

O/P:-
404 Not Found

{"outcome":"No Site ApAlSets found to delete."}

customerApSet:-
-------------------
POST:- http://localhost:8085/presets/customerApSet

{
"customerAccount": "77777",
"apSetName":"apSetName Test 1",
"fmax":2,
"period":5,
"resolution":5,
"sampleRate":3,
"sensorType":"sensor 1",
"siteId":"e24f8863-7e12-44c0-95b5-1ca33b0785c6"
}
O/P:-
200 OK

{"outcome":"New Customer ApSet created successfully."}

POST:- http://localhost:8085/presets/customerApSet

{
"customerAccount": "77777",
"fmax":2,
"period":5,
"resolution":5,
"sampleRate":3,
"sensorType":"sensorType",
"siteId":"e24f8863-7e12-44c0-95b5-1ca33b0785c6"
}

O/P:-
400 Bad Request

{"outcome":"insufficient and/or invalid data given in json"}

PUT:- http://localhost:8085/presets/customerApSet

{
    "customerAccount": "77777",
    "apSetName":"apSetName Test 1",
    "apSetId":"ec7660a8-a887-4786-8570-7c1003839dc7",
    "fmax":2,
    "period":5,
    "resolution":5,
    "sampleRate":3,
    "sensorType":"sensor 1",
    "siteId":"e24f8863-7e12-44c0-95b5-1ca33b0785c6"
}

O/P:-
200 OK

{"outcome":"Updated Customer ApSet successfully."}

PUT:- http://localhost:8085/presets/customerApSet

{
"customerAccount": "77777",
"apSetName":"apSetName Test 1",
"apSetId":"aa7660a8-a887-4786-8570-7c1003839dc7",
"fmax":2,
"period":5,
"resolution":5,
"sampleRate":3,
"sensorType":"sensor 1",
"siteId":"e24f8863-7e12-44c0-95b5-1ca33b0785c6"
}

O/P:-
404 Not Found

{"outcome":"Customer ApSet not found to update."}

GET:- http://localhost:8087/presets/customerApSet?customerAccount=77777&apSetId=3365a92a-362b-4428-9d74-462a11052b82

O/P:-
200 OK
{
  "customerAccount": "77777",
  "customerApSet": [
    {
      "customerAccount": "77777",
      "apSetId": "3365a92a-362b-4428-9d74-462a11052b82",
      "apSetName": "apSetName Test 11",
      "fmax": 2,
      "period": 5,
      "resolution": 5,
      "sampleRate": 3,
      "sensorType": "sensor 1",
      "siteId": "e24f8863-7e12-44c0-95b5-1ca33b0785c6"
    }
  ],
  "outcome": "GET worked successfully."
}

GET:- http://localhost:8085/presets/customerApSet?customerAccount=77777

O/P:-
200 OK

{
  "customerAccount": "77777",
  "customerApSet": [
    {
      "customerAccount": "77777",
      "apSetId": "3365a92a-362b-4428-9d74-462a11052b82",
      "apSetName": "apSetName Test 11",
      "fmax": 2,
      "period": 5,
      "resolution": 5,
      "sampleRate": 3,
      "sensorType": "sensor 1",
      "siteId": "e24f8863-7e12-44c0-95b5-1ca33b0785c6"
    }
  ],
  "outcome": "GET worked successfully."
}

GET:- http://localhost:8085/presets/customerApSet?customerAccount=77778

O/P:-
404 Not Found

{"outcome":"Customer ApSet not found."}

DELETE:-  http://localhost:8085/presets/customerApSet

{
"customerAccount": "77777",
"apSetName":"apSetName Test 11",
"apSetId":"ec7660a8-a887-4786-8570-7c1003839dc7",
"fmax":2,
"period":5,
"resolution":5,
"sampleRate":3,
"sensorType":"sensor 1",
"siteId":"e24f8863-7e12-44c0-95b5-1ca33b0785c6"
}

O/P:-
200 OK

{"outcome":"Deleted Customer ApSet successfully."}

DELETE:-  http://localhost:8085/presets/customerApSet

{
"customerAccount": "77777",
"apSetName":"apSetName Test 11",
"apSetId":"ec7660a8-a667-4786-8570-7c1003839dc7",
"fmax":2,
"period":5,
"resolution":5,
"sampleRate":3,
"sensorType":"sensor 1",
"siteId":"e24f8863-7e12-44c0-95b5-1ca33b0785c6"
}

O/P:-
404 Not Found

{"outcome":"No Customer ApSet found to delete."}

global_device_preset:-
-------------------
Post: http://localhost:8087/presets/globalDevice
---------------------------------------------------------
{
    "customerAccount": "77777",
    "deviceType":"MIST",
    "channelType":"DC",
    "channelNumber":"1",
    "apSetId":"d623b71a-6d3b-49dd-bd51-d5b0647cfc5f",
    "alSetId":"79c2e5b9-7328-4fcf-aa4c-fba233481152",
    "alarmEnabled":true,
    "autoAcknowledged":false,
    "disabled":false,
    "name":"Global Device Preset 1",
    "sampleInterval":30,
    "sensorOffset":0.44,
    "sensorSensitivity":0.55,
    "sensorType":"sensorType",
    "sensorUnits":"Celcius"
}

O/P:- {"outcome":"New Global Device Preset created successfully."}

Put:- http://localhost:8087/presets/globalDevice
---------------------------------------------------------

{
    "customerAccount": "77777",
    "deviceType":"MIST",
    "presetId":"55dcf249-fa78-4f27-ae07-1fadb7e48776",
    "channelType":"DC",
    "channelNumber":"1",
    "apSetId":"d623b71a-6d3b-49dd-bd51-d5b0647cfc5f",
    "alSetId":"79c2e5b9-7328-4fcf-aa4c-fba233481152",
    "alarmEnabled":true,
    "autoAcknowledged":false,
    "disabled":false,
    "name":"Global Device Preset 1",
    "sampleInterval":30,
    "sensorOffset":0.44,
    "sensorSensitivity":0.55,
    "sensorType":"sensorType",
    "sensorUnits":"Celcius"
}

O/P:-
{"outcome":"Updated Global Device Preset successfully."}

GET:- http://localhost:8087/presets/globalDevice?customerAccount=FEDEX%20EXPRESS
-------------------------------------------------------------------------------
O/P:- 
{
    "customerAccount": "FEDEX EXPRESS",
    "GlobalDevicePreset": [
        {
            "customerAccount": "FEDEX EXPRESS",
            "deviceType": "MistLX",
            "presetId": "919f7ae1-408a-48b0-9308-26ca567977c0",
            "channelType": "AC",
            "channelNumber": 0,
            "apSetId": "246ec928-ead2-4a0c-859e-267b3cf5525a",
            "alSetId": "730aa0b1-8c75-48b6-a2b5-a7c2b8038809",
            "alarmEnabled": false,
            "autoAcknowledge": false,
            "disabled": false,
            "name": "Test-19",
            "sampleInterval": 0,
            "sensorOffset": 0.0,
            "sensorSensitivity": 50.0,
            "sensorType": "Ultrasonic",
            "sensorUnits": "Pascals",
            "apSetName": "UTS Global Ultra",
            "alSetName": "AL Set 1"
        },
        {
            "customerAccount": "FEDEX EXPRESS",
            "deviceType": "MistLX",
            "presetId": "919f7ae1-408a-48b0-9308-26ca567977c0",
            "channelType": "AC",
            "channelNumber": 1,
            "apSetId": "12eb5464-86a6-40f3-b072-d799f2387201",
            "alSetId": "fb192ff3-cbfd-4e9d-bde8-f8b6213b2fab",
            "alarmEnabled": false,
            "autoAcknowledge": false,
            "disabled": false,
            "name": "Test-19",
            "sampleInterval": 0,
            "sensorOffset": 0.0,
            "sensorSensitivity": 50.0,
            "sensorType": "Acceleration",
            "sensorUnits": "Gs",
            "apSetName": "UTS Global Accel",
            "alSetName": "UTS Al Set 1"
        },
        {
            "customerAccount": "FEDEX EXPRESS",
            "deviceType": "MistLX",
            "presetId": "919f7ae1-408a-48b0-9308-26ca567977c0",
            "channelType": "DC",
            "channelNumber": 0,
            "apSetId": "90a95823-1d96-4869-a95e-b2c7313b84b7",
            "alSetId": "d474ce3d-5e00-4ddd-91bb-d39c505c66fa",
            "alarmEnabled": false,
            "autoAcknowledge": false,
            "disabled": false,
            "name": "Test-19",
            "sampleInterval": 0,
            "sensorOffset": 0.0,
            "sensorSensitivity": 1000.0,
            "sensorType": "Temperature",
            "sensorUnits": "F",
            "apSetName": "UTS Global Temp",
            "alSetName": "Temp"
        }
    ],
    "outcome": "GET worked successfully."
}

GET:- http://localhost:8087/presets/globalDevice?customerAccount=FEDEX%20EXPRESS&deviceType=MistLX
-------------------------------------------------------------------------------
O/P:- 
{
    "customerAccount": "FEDEX EXPRESS",
    "deviceType":"MistLX",
    "GlobalDevicePreset": [
        {
            "customerAccount": "FEDEX EXPRESS",
            "deviceType": "MistLX",
            "presetId": "919f7ae1-408a-48b0-9308-26ca567977c0",
            "channelType": "AC",
            "channelNumber": 0,
            "apSetId": "246ec928-ead2-4a0c-859e-267b3cf5525a",
            "alSetId": "730aa0b1-8c75-48b6-a2b5-a7c2b8038809",
            "alarmEnabled": false,
            "autoAcknowledge": false,
            "disabled": false,
            "name": "Test-19",
            "sampleInterval": 0,
            "sensorOffset": 0.0,
            "sensorSensitivity": 50.0,
            "sensorType": "Ultrasonic",
            "sensorUnits": "Pascals",
            "apSetName": "UTS Global Ultra",
            "alSetName": "AL Set 1"
        },
        {
            "customerAccount": "FEDEX EXPRESS",
            "deviceType": "MistLX",
            "presetId": "919f7ae1-408a-48b0-9308-26ca567977c0",
            "channelType": "AC",
            "channelNumber": 1,
            "apSetId": "12eb5464-86a6-40f3-b072-d799f2387201",
            "alSetId": "fb192ff3-cbfd-4e9d-bde8-f8b6213b2fab",
            "alarmEnabled": false,
            "autoAcknowledge": false,
            "disabled": false,
            "name": "Test-19",
            "sampleInterval": 0,
            "sensorOffset": 0.0,
            "sensorSensitivity": 50.0,
            "sensorType": "Acceleration",
            "sensorUnits": "Gs",
            "apSetName": "UTS Global Accel",
            "alSetName": "UTS Al Set 1"
        }
    ],
    "outcome": "GET worked successfully."
}

GET:- http://localhost:8087/presets/globalDevice?customerAccount=77777&deviceType=MIST&presetId=55dcf249-fa78-4f27-ae07-1fadb7e48776&channelType=DC&channelNumber=1
---------------------------------------------------------------------------------------------------------------------------
O/P:- 
{
	"customerAccount": "77777",
	"deviceType": "MIST",
	"presetId": "55dcf249-fa78-4f27-ae07-1fadb7e48776",
	"channelType": "DC",
	"channelNumber": "1",
	"GlobalDevicePreset": [{
		"customerAccount": "77777",
		"deviceType": "MIST",
		"presetId": "55dcf249-fa78-4f27-ae07-1fadb7e48776",
		"channelType": "DC",
		"channelNumber": 1,
		"apSetId": "d623b71a-6d3b-49dd-bd51-d5b0647cfc5f",
		"alSetId": "79c2e5b9-7328-4fcf-aa4c-fba233481152",
		"alarmEnabled": true,
		"autoAcknowledge": false,
		"disabled": false,
		"sampleInterval": 30,
		"sensorOffset": 0.44,
		"sensorSensitivity": 0.55,
		"sensorType": "sensorType",
		"sensorUnits": "Celcius"
	}],
	"outcome": "GET worked successfully."
}

DELETE:- http://localhost:8087/presets/globalDevice
------------------------------------------------------------
{
    "customerAccount": "77777",
    "deviceType":"MIST",
    "presetId":"55dcf249-fa78-4f27-ae07-1fadb7e48776",
    "channelType":"DC",
    "channelNumber":"1",
    "apSetId":"d623b71a-6d3b-49dd-bd51-d5b0647cfc5f",
    "alSetId":"79c2e5b9-7328-4fcf-aa4c-fba233481152",
    "alarmEnabled":true,
    "autoAcknowledged":false,
    "disabled":false,
    "name":"Global Device Preset 1",
    "sampleInterval":30,
    "sensorOffset":0.44,
    "sensorSensitivity":0.55,
    "sensorType":"sensorType",
    "sensorUnits":"Celcius"
}


O/P:- {"outcome":"Deleted Global Device Preset successfully."}

site_device_preset:-
-------------------
Post: http://localhost:8087/presets/siteDevice
---------------------------------------------------------
{
    "customerAccount": "77777",
    "siteId":"dee5158a-30b0-4c12-b6b9-40cb91d1206d",
    "deviceType":"MIST",
    "channelType":"DC",
    "channelNumber":"1",
    "apSetId":"d623b71a-6d3b-49dd-bd51-d5b0647cfc5f",
    "alSetId":"79c2e5b9-7328-4fcf-aa4c-fba233481152",
    "alarmEnabled":true,
    "autoAcknowledged":false,
    "disabled":false,
    "name":"Site Device Preset 1",
    "sampleInterval":30,
    "sensorOffset":0.44,
    "sensorSensitivity":0.55,
    "sensorType":"sensorType",
    "sensorUnits":"Celcius"
}

O/P:- {"outcome":"New Site Device Preset created successfully."}

Put:- http://localhost:8087/presets/siteDevice
---------------------------------------------------------

{
    "customerAccount": "77777",
    "siteId": "dee5158a-30b0-4c12-b6b9-40cb91d1206d",
    "deviceType":"MIST",
    "presetId":"9e945284-1281-4685-83d2-93dcecabd567",
    "channelType":"DC",
    "channelNumber":"1",
    "apSetId":"d623b71a-6d3b-49dd-bd51-d5b0647cfc5f",
    "alSetId":"79c2e5b9-7328-4fcf-aa4c-fba233481152",
    "alarmEnabled":true,
    "autoAcknowledged":false,
    "disabled":false,
    "name":"Site Device Preset 1",
    "sampleInterval":30,
    "sensorOffset":0.44,
    "sensorSensitivity":0.55,
    "sensorType":"sensorType",
    "sensorUnits":"Celcius"
}

O/P:-
{"outcome":"Updated Site Device Preset successfully."}

GET:- http://localhost:8087/presets/siteDevice?customerAccount=FEDEX%20EXPRESS&siteId=8b086e15-371f-4a8d-bedb-c1b67b49be3e
-------------------------------------------------------------------------------

O/P:- 
{
    "customerAccount": "FEDEX EXPRESS",
    "siteId": "8b086e15-371f-4a8d-bedb-c1b67b49be3e",
    "SiteDevicePreset": [
        {
            "customerAccount": "FEDEX EXPRESS",
            "siteId": "8b086e15-371f-4a8d-bedb-c1b67b49be3e",
            "deviceType": "MistLX",
            "presetId": "3dea0ab9-ab92-4ed7-a796-96148e4c9da1",
            "channelType": "DC",
            "channelNumber": 0,
            "apSetId": "90a95823-1d96-4869-a95e-b2c7313b84b7",
            "alSetId": "d474ce3d-5e00-4ddd-91bb-d39c505c66fa",
            "alarmEnabled": false,
            "autoAcknowledge": false,
            "disabled": false,
            "name": "Test delete",
            "sampleInterval": 0,
            "sensorOffset": 0.0,
            "sensorSensitivity": 1000.0,
            "sensorType": "Temperature",
            "sensorUnits": "F",
            "apSetName": "UTS Global Temp",
            "alSetName": "Temp"
        },
        {
            "customerAccount": "FEDEX EXPRESS",
            "siteId": "8b086e15-371f-4a8d-bedb-c1b67b49be3e",
            "deviceType": "MistLX",
            "presetId": "3dea0ab9-ab92-4ed7-a796-96148e4c9da1",
            "channelType": "DC",
            "channelNumber": 1,
            "apSetId": "575efc62-1578-4c24-ac0d-eae5802ef361",
            "alSetId": "c6abc370-c36c-4960-b124-055ef6e5d00c",
            "alarmEnabled": false,
            "autoAcknowledge": false,
            "disabled": false,
            "name": "Test delete",
            "sampleInterval": 0,
            "sensorOffset": 0.0,
            "sensorSensitivity": 1000.0,
            "sensorType": "Voltage",
            "sensorUnits": "V",
            "apSetName": "AUTO_BATTERY",
            "alSetName": "Default"
        },
        {
            "customerAccount": "FEDEX EXPRESS",
            "siteId": "8b086e15-371f-4a8d-bedb-c1b67b49be3e",
            "deviceType": "MistLX",
            "presetId": "f2125a34-d9ee-4e23-b01d-19bced76b9a6",
            "channelType": "DC",
            "channelNumber": 1,
            "apSetId": "575efc62-1578-4c24-ac0d-eae5802ef361",
            "alSetId": "c6abc370-c36c-4960-b124-055ef6e5d00c",
            "alarmEnabled": false,
            "autoAcknowledge": false,
            "disabled": false,
            "name": "Mist Memphis",
            "sampleInterval": 0,
            "sensorOffset": 0.0,
            "sensorSensitivity": 1000.0,
            "sensorType": "Voltage",
            "sensorUnits": "V",
            "apSetName": "AUTO_BATTERY",
            "alSetName": "Default"
        }
    ],
    "outcome": "GET worked successfully."
}

GET:- http://localhost:8087/presets/siteDevice?customerAccount=FEDEX%20EXPRESS&siteId=8b086e15-371f-4a8d-bedb-c1b67b49be3e&deviceType=MistLX
-------------------------------------------------------------------------------
O/P:- 
{
    "customerAccount": "FEDEX EXPRESS",
    "deviceType": "MistLX",
    "siteId": "8b086e15-371f-4a8d-bedb-c1b67b49be3e",
    "SiteDevicePreset": [
        {
            "customerAccount": "FEDEX EXPRESS",
            "siteId": "8b086e15-371f-4a8d-bedb-c1b67b49be3e",
            "deviceType": "MistLX",
            "presetId": "3dea0ab9-ab92-4ed7-a796-96148e4c9da1",
            "channelType": "DC",
            "channelNumber": 0,
            "apSetId": "90a95823-1d96-4869-a95e-b2c7313b84b7",
            "alSetId": "d474ce3d-5e00-4ddd-91bb-d39c505c66fa",
            "alarmEnabled": false,
            "autoAcknowledge": false,
            "disabled": false,
            "name": "Test delete",
            "sampleInterval": 0,
            "sensorOffset": 0.0,
            "sensorSensitivity": 1000.0,
            "sensorType": "Temperature",
            "sensorUnits": "F",
            "apSetName": "UTS Global Temp",
            "alSetName": "Temp"
        },
        {
            "customerAccount": "FEDEX EXPRESS",
            "siteId": "8b086e15-371f-4a8d-bedb-c1b67b49be3e",
            "deviceType": "MistLX",
            "presetId": "3dea0ab9-ab92-4ed7-a796-96148e4c9da1",
            "channelType": "DC",
            "channelNumber": 1,
            "apSetId": "575efc62-1578-4c24-ac0d-eae5802ef361",
            "alSetId": "c6abc370-c36c-4960-b124-055ef6e5d00c",
            "alarmEnabled": false,
            "autoAcknowledge": false,
            "disabled": false,
            "name": "Test delete",
            "sampleInterval": 0,
            "sensorOffset": 0.0,
            "sensorSensitivity": 1000.0,
            "sensorType": "Voltage",
            "sensorUnits": "V",
            "apSetName": "AUTO_BATTERY",
            "alSetName": "Default"
        },
        {
            "customerAccount": "FEDEX EXPRESS",
            "siteId": "8b086e15-371f-4a8d-bedb-c1b67b49be3e",
            "deviceType": "MistLX",
            "presetId": "f2125a34-d9ee-4e23-b01d-19bced76b9a6",
            "channelType": "DC",
            "channelNumber": 1,
            "apSetId": "575efc62-1578-4c24-ac0d-eae5802ef361",
            "alSetId": "c6abc370-c36c-4960-b124-055ef6e5d00c",
            "alarmEnabled": false,
            "autoAcknowledge": false,
            "disabled": false,
            "name": "Mist Memphis",
            "sampleInterval": 0,
            "sensorOffset": 0.0,
            "sensorSensitivity": 1000.0,
            "sensorType": "Voltage",
            "sensorUnits": "V",
            "apSetName": "AUTO_BATTERY",
            "alSetName": "Default"
        }
    ],
    "outcome": "GET worked successfully."
}

GET:- http://localhost:8087/presets/siteDevice?customerAccount=77777&deviceType=MIST&siteId=dee5158a-30b0-4c12-b6b9-40cb91d1206d&presetId=9e945284-1281-4685-83d2-93dcecabd567&channelType=DC&channelNumber=1
---------------------------------------------------------------------------------------------------------------------------
O/P:- 
{
	"customerAccount": "77777",
	"siteId": "dee5158a-30b0-4c12-b6b9-40cb91d1206d",
	"deviceType": "MIST",
	"presetId": "9e945284-1281-4685-83d2-93dcecabd567",
	"channelType": "DC",
	"channelNumber": "1",
	"SiteDevicePreset": [{
		"customerAccount": "77777",
		"siteId": "dee5158a-30b0-4c12-b6b9-40cb91d1206d",
		"deviceType": "MIST",
		"presetId": "9e945284-1281-4685-83d2-93dcecabd567",
		"channelType": "DC",
		"channelNumber": 1,
		"apSetId": "d623b71a-6d3b-49dd-bd51-d5b0647cfc5f",
		"alSetId": "79c2e5b9-7328-4fcf-aa4c-fba233481152",
		"alarmEnabled": true,
		"autoAcknowledge": false,
		"disabled": false,
		"name": "Test SiteDevice",
		"sampleInterval": 30,
		"sensorOffset": 0.44,
		"sensorSensitivity": 0.55,
		"sensorType": "sensorType",
		"sensorUnits": "Celcius"
	}],
	"outcome": "GET worked successfully."
}

DELETE:- http://localhost:8087/presets/siteDevice
------------------------------------------------------------
{
    "customerAccount": "77777",
    "siteId": "dee5158a-30b0-4c12-b6b9-40cb91d1206d",
    "deviceType":"MIST",
    "presetId":"9e945284-1281-4685-83d2-93dcecabd567",
    "channelType":"DC",
    "channelNumber":"1",
    "apSetId":"d623b71a-6d3b-49dd-bd51-d5b0647cfc5f",
    "alSetId":"79c2e5b9-7328-4fcf-aa4c-fba233481152",
    "alarmEnabled":true,
    "autoAcknowledged":false,
    "disabled":false,
    "name":"Site Device Preset 1",
    "sampleInterval":30,
    "sensorOffset":0.44,
    "sensorSensitivity":0.55,
    "sensorType":"sensorType",
    "sensorUnits":"Celcius"
}

O/P:- {"outcome":"Deleted Site Device Preset successfully."}

global_pt_location_names:-
-------------------
Post: http://localhost:8087/presets/globalPtLocationNames
---------------------------------------------------------
{
    "customerAccount": "77777",
    "pointLocationName":"Global pointLocationName Test 1",
    "description":"Global pointLocationName description Test 1"
}

O/P:- {"outcome":"New GlobalPtLocationNames created successfully."}

Put:- http://localhost:8087/presets/globalPtLocationNames
---------------------------------------------------------

{
"customerAccount": "77777",
"pointLocationName":"Global pointLocationName Test 1",
"description":"Global pointLocationName description Test 11"
}

O/P:-
{"outcome":"Updated GlobalPtLocationNames successfully."}

GET:- http://localhost:8087/presets/globalPtLocationNames?customerAccount=77777
-------------------------------------------------------------------------------
O/P:- 
{
  "customerAccount": "77777",
  "GlobalPtLocationNames": [
    {
      "customerAccount": "77777",
      "pointLocationName": "Global pointLocationName Test 1",
      "description": "Global pointLocationName description Test 11"
    }
  ],
  "outcome": "GET worked successfully."
}

GET:- http://localhost:8087/presets/globalPtLocationNames?customerAccount=77777&pointLocationName=Global%20pointLocationName%20Test%201
-------------------------------------------------------------------------------------------------------
O/P:- 
{
  "customerAccount": "77777",
  "pointLocationName": "Global pointLocationName Test 1",
  "GlobalPtLocationNames": [
    {
      "customerAccount": "77777",
      "pointLocationName": "Global pointLocationName Test 1",
      "description": "Global pointLocationName description Test 11"
    }
  ],
  "outcome": "GET worked successfully."
}


DELETE:- http://localhost:8087/presets/globalPtLocationNames
------------------------------------------------------------
{
    "customerAccount": "77777",
    "pointLocationName":"Global pointLocationName Test 1",
    "description":"Global pointLocationName description Test 11"
}

O/P:- {"outcome":"Deleted GlobalPtLocationNames successfully."}

site_pt_location_names:-
-------------------
Post: http://localhost:8087/presets/sitePtLocationNames
---------------------------------------------------------
{
    "customerAccount": "77777",
    "siteId":"dee5158a-30b0-4c12-b6b9-40cb91d1206d",
    "pointLocationName":"Site pointLocationName Test 1",
    "description":"Site pointLocationName description Test 1"
}

O/P:- {"outcome":"New SitePtLocationNames created successfully."}

Put:- http://localhost:8087/presets/sitePtLocationNames
---------------------------------------------------------

{
    "customerAccount": "77777",
    "siteId":"dee5158a-30b0-4c12-b6b9-40cb91d1206d",
    "pointLocationName":"Site pointLocationName Test 1",
    "description":"Site pointLocationName description Test 11"
}

O/P:-
{"outcome":"Updated SitePtLocationNames successfully."}

GET:- http://localhost:8087/presets/sitePtLocationNames?customerAccount=77777&siteId=dee5158a-30b0-4c12-b6b9-40cb91d1206d
-------------------------------------------------------------------------------------------------------
O/P:- 
{
  "customerAccount": "77777",
  "siteId": "dee5158a-30b0-4c12-b6b9-40cb91d1206d",
  "SitePtLocationNames": [
    {
      "customerAccount": "77777",
      "siteId": "dee5158a-30b0-4c12-b6b9-40cb91d1206d",
      "pointLocationName": "Site pointLocationName Test 1",
      "description": "Site pointLocationName description Test 11"
    }
  ],
  "outcome": "GET worked successfully."
}

GET:- http://localhost:8087/presets/sitePtLocationNames?customerAccount=77777&siteId=dee5158a-30b0-4c12-b6b9-40cb91d1206d&pointLocationName=Site%20pointLocationName%20Test%201
-------------------------------------------------------------------------------
O/P:- 
{
  "customerAccount": "77777",
  "siteId": "dee5158a-30b0-4c12-b6b9-40cb91d1206d",
  "pointLocationName": "Site pointLocationName Test 1",
  "SitePtLocationNames": [
    {
      "customerAccount": "77777",
      "siteId": "dee5158a-30b0-4c12-b6b9-40cb91d1206d",
      "pointLocationName": "Site pointLocationName Test 1",
      "description": "Site pointLocationName description Test 11"
    }
  ],
  "outcome": "GET worked successfully."
}

DELETE:- http://localhost:8087/presets/sitePtLocationNames
------------------------------------------------------------
{
    "customerAccount": "77777",
    "siteId":"dee5158a-30b0-4c12-b6b9-40cb91d1206d",
    "pointLocationName":"Site pointLocationName Test 1",
    "description":"Site pointLocationName description Test 11"
}

O/P:- {"outcome":"Deleted SitePtLocationNames successfully."}

site_bearing_favorites:-
-------------------
Post: http://localhost:8087/presets/siteBearingFavorites
---------------------------------------------------------
 [
    {
        "customerAccount": "FEDEX EXPRESS",
        "siteId": "8b086e15-371f-4a8d-bedb-c1b67b49be3e",
        "vendorId": "Test Vendor 1",
        "bearingId": "Test Bearing 1",
        "ftf": 2,
        "bsf": 10,
        "bpfo": 20,
        "bpfi": 30"
    }
]


O/P:- {"outcome":"New Site Bearing Favorites created successfully."}

Put: http://localhost:8087/presets/siteBearingFavorites
---------------------------------------------------------
{
    "createSiteBearingFavoritesVOList": [
        {
            "customerAccount": "FEDEX EXPRESS",
            "siteId": "8b086e15-371f-4a8d-bedb-c1b67b49be3e",
            "vendorId": "Test Vendor 2",
            "bearingId": "Test Bearing 2",
            "ftf": 3,
            "bsf": 10,
            "bpfo": 20,
            "bpfi": 30
        }
    ],
    "deleteSiteBearingFavoritesVOList": [
        {
            "customerAccount": "FEDEX EXPRESS",
            "siteId": "8b086e15-371f-4a8d-bedb-c1b67b49be3e",
            "vendorId": "Test Vendor 1",
            "bearingId": "Test Bearing 1",
            "ftf": 3,
            "bsf": 10,
            "bpfo": 20,
            "bpfi": 30
        }
    ]
}

O/P:- {"outcome":"Updated Site Bearing Favorites successfully."}

GET:- http://localhost:8087/presets/siteBearingFavorites?customerAccount=FEDEX%20EXPRESS&siteId=8b086e15-371f-4a8d-bedb-c1b67b49be3e
-------------------------------------------------------------------------------------------------------
O/P:- 

{
    "customerAccount": "FEDEX EXPRESS",
    "siteId": "8b086e15-371f-4a8d-bedb-c1b67b49be3e",
    "SiteBearingFavorites": [
        {
            "customerAcct": "FEDEX EXPRESS",
            "siteId": "8b086e15-371f-4a8d-bedb-c1b67b49be3e",
            "vendorId": "Test Vendor 1",
            "bearingId": "Test Bearing 1",
            "ftf": 3.0,
            "bsf": 10.0,
            "bpfo": 20.0,
            "bpfi": 30.0
        }
    ],
    "outcome": "GET worked successfully."
}

GET:- http://localhost:8087/presets/siteBearingFavorites?customerAccount=FEDEX%20EXPRESS&siteId=8b086e15-371f-4a8d-bedb-c1b67b49be3e&vendorId=Test%20Vendor%201
-------------------------------------------------------------------------------------------------------
O/P:- 

{
    "customerAccount": "FEDEX EXPRESS",
    "siteId": "8b086e15-371f-4a8d-bedb-c1b67b49be3e",
    "vendorId": "Test Vendor 1",
    "SiteBearingFavorites": [
        {
            "customerAcct": "FEDEX EXPRESS",
            "siteId": "8b086e15-371f-4a8d-bedb-c1b67b49be3e",
            "vendorId": "Test Vendor 1",
            "bearingId": "Test Bearing 1",
            "ftf": 2.0,
            "bsf": 10.0,
            "bpfo": 20.0,
            "bpfi": 0.0
        }
    ],
    "outcome": "GET worked successfully."
}

GET:- http://localhost:8087/presets/siteBearingFavorites?customerAccount=FEDEX%20EXPRESS&siteId=8b086e15-371f-4a8d-bedb-c1b67b49be3e&vendorId=Test%20Vendor%201&bearingId=Test%20Bearing%201
-------------------------------------------------------------------------------------------------------
O/P:- 

{
    "customerAccount": "FEDEX EXPRESS",
    "siteId": "8b086e15-371f-4a8d-bedb-c1b67b49be3e",
    "vendorId": "Test Vendor 1",
    "bearingId": "Test Bearing 1",
    "SiteBearingFavorites": [
        {
            "customerAcct": "FEDEX EXPRESS",
            "siteId": "8b086e15-371f-4a8d-bedb-c1b67b49be3e",
            "vendorId": "Test Vendor 1",
            "bearingId": "Test Bearing 1",
            "ftf": 3.0,
            "bsf": 10.0,
            "bpfo": 20.0,
            "bpfi": 30.0
        }
    ],
    "outcome": "GET worked successfully."
}

Delete: http://localhost:8087/presets/siteBearingFavorites
---------------------------------------------------------
{
    "customerAccount": "FEDEX EXPRESS",
    "siteId": "8b086e15-371f-4a8d-bedb-c1b67b49be3e",
    "vendorId": "Test Vendor 1",
    "bearingId": "Test Bearing 1",
    "ftf": 2,
    "bsf": 10,
    "bpfo": 20,
    "bpfi": 30
}

O/P:- {"outcome":"Deleted SiteBearingFavorites successfully."}


bearing_catalog:-
-------------------
Post: http://localhost:8087/presets/bearingCatalog
---------------------------------------------------------
{
    "vendorId": "Test Vendor",
    "bearingId": "Test Bearing",
    "bc": 2,
    "ftf": 2,
    "bsf": 10,
    "bpfo": 20,
    "bpfi": 30
}


O/P:- {"outcome":"New Bearing Catalog created successfully."}

Put: http://localhost:8087/presets/bearingCatalog
---------------------------------------------------------
{
    "vendorId": "Test Vendor",
    "bearingId": "Test Bearing",
    "bc": 2,
    "ftf": 2,
    "bsf": 10,
    "bpfo": 20,
    "bpfi": 35
}

O/P:- {"outcome":"Updated Bearing Catalog successfully."}

GET:- http://localhost:8087/presets/bearingCatalog?vendorId=Test Vendor&bearingId=Test Bearing
-------------------------------------------------------------------------------------------------------
O/P:- 

{
    "vendorId": "Test Vendor",
    "bearingId": "Test Bearing",
    "BearingCatalog": [
        {
            "vendorId": "Test Vendor",
            "bearingId": "Test Bearing",
            "bc": 2,
            "bpfi": 35.0,
            "bpfo": 20.0,
            "bsf": 10.0,
            "ftf": 2.0
        }
    ],
    "outcome": "GET worked successfully."
}
GET:- http://localhost:8087/presets/bearingCatalog?vendorId=Test%20Vendor
-------------------------------------------------------------------------------------------------------
O/P:- 

{
    "vendorId": "Test Vendor",
    "BearingCatalog": [
        {
            "vendorId": "Test Vendor",
            "bearingId": "Test Bearing",
            "bc": 2,
            "bpfi": 35.0,
            "bpfo": 20.0,
            "bsf": 10.0,
            "ftf": 2.0
        }
    ],
    "outcome": "GET worked successfully."
}

GET:- 10.1.11.5:8088/presets/bearingCatalog?vendorId=DISTINCT

O/P:- 
{
    "vendorIds": [
        "MRC",
        "TMK",
        "SNR",
        "STR",
        "McG",
        "Test Vendor",
        "BAN",
        "COO",
        "MHP",
        "SKF",
        "SEA",
        "NIC",
        "NSK"
    ],
    "outcome": "GET worked successfully."
}

Delete: http://localhost:8087/presets/bearingCatalog
---------------------------------------------------------
{
    "vendorId": "Test Vendor",
    "bearingId": "Test Bearing",
    "bc": 2,
    "ftf": 2,
    "bsf": 10,
    "bpfo": 20,
    "bpfi": 35
}

O/P:- {"outcome":"Deleted Bearing Catalog successfully."}


site_ff_set_favorites:-
----------------------
post : - 
http://localhost:8087/presets/siteFFSetFavorites
-----------------------------------------------------------
[
{
"customerAccount":"77777",
"ffSetId":"b026aa07-3e5c-4c24-b24e-0dc01779375e",
"ffId":"f9dbaf10-e394-418a-ad91-381700ee0850",
"ffName":"fname123",
"ffSetDesc":"Set name 55 desc",
"ffSetName":"Set name 55",
"ffUnit":"RPM",
"ffValue":0.0,
"global":true,
"siteId":"7ac748c0-afca-400c-a315-53c94a83aa67"
}
]

O/P :-  {"outcome":"New Site FF Set Favorites created successfully."}

PUT:-
http://localhost:8087/presets/siteFFSetFavorites
----------------------------------------------------
O/P :- 
{
    "createSiteFFSetFavoritesVOList": [
        {
            "customerAccount": "77777",
            "ffSetId": "10fe52f4-97f1-4ef2-ad39-c0e2aa871dad",
            "ffId": "fa4a86d6-4b4d-4fec-b644-04e40189102c",
            "ffName": "Freq1",
            "ffSetDesc": "Test of manual create",
            "ffSetName": "FF Set Manual 2",
            "ffUnit": "Orders",
            "ffValue": 86.26,
            "global": false,
            "siteId": "8b086e15-371f-4a8d-bedb-c1b67b49be3e"
        }
    ],
    "deleteSiteFFSetFavoritesVOList": [
                {
            "customerAccount": "77777",
            "ffSetId": "0da826a3-22c6-489d-bd00-0d728df874cb",
            "ffId": "92f63a2b-87d7-40d5-baa4-f2138c842c44",
            "ffName": "AAAAA",
            "ffSetDesc": "Test",
            "ffSetName": "test_04_01_24",
            "ffUnit": "RPM",
            "ffValue": 1.0,
            "global": false,
            "siteId": "8b086e15-371f-4a8d-bedb-c1b67b49be3e"
        }
    ]
}

O/P :-  {"outcome":"Updated Site FF Set Favorites successfully."}

GET:- 
http://localhost:8087/presets/siteFFSetFavorites?customerAccount=77777&siteId=7ac748c0-afca-400c-a315-53c94a83aa67

O/P :- 
{
    "customerAccount": "77777",
    "siteId": "7ac748c0-afca-400c-a315-53c94a83aa67",
    "SiteFFSetFavorites": [
        {
            "customerAccount": "77777",
            "siteId": "7ac748c0-afca-400c-a315-53c94a83aa67",
            "ffSetId": "b026aa07-3e5c-4c24-b24e-0dc01779375e",
            "ffId": "f9dbaf10-e394-418a-ad91-381700ee0850",
            "ffName": "fname123",
            "ffSetDesc": "Set name 55 desc",
            "ffSetName": "Set name 55",
            "ffUnit": "RPM",
            "ffValue": 0.0,
            "global": true
        }
    ],
    "outcome": "GET worked successfully."
}

GET:-
http://localhost:8087/presets/siteFFSetFavorites?customerAccount=77777&siteId=7ac748c0-afca-400c-a315-53c94a83aa67&ffSetId=b026aa07-3e5c-4c24-b24e-0dc01779375e&ffId=f9dbaf10-e394-418a-ad91-381700ee0850

O/P :- 

{
    "customerAccount": "77777",
    "siteId": "7ac748c0-afca-400c-a315-53c94a83aa67",
    "ffSetId": "b026aa07-3e5c-4c24-b24e-0dc01779375e",
    "ffId": "f9dbaf10-e394-418a-ad91-381700ee0850",
    "SiteFFSetFavorites": [
        {
            "customerAccount": "77777",
            "siteId": "7ac748c0-afca-400c-a315-53c94a83aa67",
            "ffSetId": "b026aa07-3e5c-4c24-b24e-0dc01779375e",
            "ffId": "f9dbaf10-e394-418a-ad91-381700ee0850",
            "ffName": "fname123",
            "ffSetDesc": "Set name 55 desc",
            "ffSetName": "Set name 55",
            "ffUnit": "RPM",
            "ffValue": 0.0,
            "global": true
        }
    ],
    "outcome": "GET worked successfully."
}

DELETE : - http://localhost:8087/presets/siteFFSetFavorites
--------------------------------------------------------------
O/P :- 
[
{
"customerAccount":"77777",
"ffSetId":"b026aa07-3e5c-4c24-b24e-0dc01779375e",
"ffId":"f9dbaf10-e394-418a-ad91-381700ee0850",
"ffName":"fname123",
"ffSetDesc":"Set name 55 desc",
"ffSetName":"Set name 55",
"ffUnit":"RPM",
"ffValue":0.0,
"global":true,
"siteId":"7ac748c0-afca-400c-a315-53c94a83aa67"
}
]

O/P :- 
 {"outcome":"Deleted Site FF Set Favorites successfully."}

DELETE : 
http://localhost:8087/presets/siteFFSetFavorites?customerAccount=77777&siteId=7ac748c0-afca-400c-a315-53c94a83aa67&ffSetId=b026aa07-3e5c-4c24-b24e-0dc01779375e
------------------------------------------------------------------------------------------------------------------------------------------------------------------
O/P :- 
 {"outcome":"Deleted Site FF Set Favorites successfully."}

DELETE :
http://localhost:8087/presets/siteFFSetFavorites?customerAccount=77777&siteId=7ac748c0-afca-400c-a315-53c94a83aa67

O/P :- 
{"outcome":"Deleted Site FF Set Favorites successfully."}

GET :- 
http://localhost:8088/presets/globalAssetType?customerAccount=UPTIME

O/P :- 
{
    "customerAccount": "UPTIME",
    "GlobalAssetTypes": [
        {
            "customerAccount": "UPTIME",
            "assetTypeName": "Bearing",
            "description": "Bearing"
        },
        {
            "customerAccount": "UPTIME",
            "assetTypeName": "Gearbox",
            "description": "Gearbox"
        },
        {
            "customerAccount": "UPTIME",
            "assetTypeName": "Motor",
            "description": "Motor"
        },
        {
            "customerAccount": "UPTIME",
            "assetTypeName": "Pump",
            "description": "Pump"
        }
    ],
    "outcome": "GET worked successfully."
}

GET :- 
httplocalhost:8088/presets/globalAssetType?customerAccount=UPTIME&assetTypeName=Roll

O/P :- 
{
    "customerAccount": "UPTIME",
    "assetTypeName": "Roll",
    "GlobalAssetTypes": [
        {
            "customerAccount": "UPTIME",
            "assetTypeName": "Roll",
            "description": "Roll"
        }
    ],
    "outcome": "GET worked successfully."
}

GET :- 
http://10.1.11.5:8088/presets/globalAsset?customerAccount=FEDEX EXPRESS&assetTypeName=Fan&assetPresetId=dacfa405-1531-4408-874e-3583aa6561bb&pointLocationName=Test-123

O/P :- 
{
  "customerAccount": "77777",
  "assetTypeName": "Test Asset Type",
  "assetPresetId": "dee5158a-30b0-4c12-b6b9-40cb91d1206d",
  "GlobalAssetPreset": [
    {
      "customerAccount": "77777",
      "assetTypeName": "Test Asset Type",
      "assetPresetId": "dee5158a-30b0-4c12-b6b9-40cb91d1206d",
      "pointLocationName": "Point Location Name",
      "assetPresetName": "d623b71a-6d3b-49dd-bd51-d5b0647cfc5f",
      "devicePresetId": "79c2e5b9-7328-4fcf-aa4c-fba233481152",
      "devicePresetType":"MistLx",
      "sampleInterval": 30,
      "ffSetIds": "Test ffSEt Ids",
      "rollDiameter": 10.0,
      "rollDiameterUnits": "Test",
      "speedRatio": 0.55,
      "tachId": "dee5158a-30b0-4c12-b6b9-40cb91d1206d",
      "description": "Celcius"
    }
  ],
  "outcome": "GET worked successfully."
}


GET :- 
http://10.1.11.5:8088/presets/globalAsset?customerAccount=FEDEX EXPRESS&assetTypeName=Fan&assetPresetId=dacfa405-1531-4408-874e-3583aa6561bb

O/P :- 
{
  "customerAccount": "77777",
  "assetTypeName": "Test Asset Type",
  "assetPresetId": "dee5158a-30b0-4c12-b6b9-40cb91d1206d",
  "GlobalAssetPreset": [
    {
      "customerAccount": "77777",
      "assetTypeName": "Test Asset Type",
      "assetPresetId": "dee5158a-30b0-4c12-b6b9-40cb91d1206d",
      "pointLocationName": "Point Location Name",
      "assetPresetName": "d623b71a-6d3b-49dd-bd51-d5b0647cfc5f",
      "devicePresetId": "79c2e5b9-7328-4fcf-aa4c-fba233481152",
      "devicePresetType":"MistLx",
      "sampleInterval": 30,
      "ffSetIds": "Test ffSEt Ids",
      "rollDiameter": 10.0,
      "rollDiameterUnits": "Test",
      "speedRatio": 0.55,
      "tachId": "dee5158a-30b0-4c12-b6b9-40cb91d1206d",
      "description": "Celcius"
    }
  ],
  "outcome": "GET worked successfully."
}


GET :- 
http://10.1.11.5:8088/presets/globalAsset?customerAccount=FEDEX EXPRESS&assetTypeName=Fan

O/P :- 
{
  "customerAccount": "77777",
  "assetTypeName": "Test Asset Type",
  "assetPresetId": "dee5158a-30b0-4c12-b6b9-40cb91d1206d",
  "GlobalAssetPreset": [
    {
      "customerAccount": "77777",
      "assetTypeName": "Test Asset Type",
      "assetPresetId": "dee5158a-30b0-4c12-b6b9-40cb91d1206d",
      "pointLocationName": "Point Location Name",
      "assetPresetName": "d623b71a-6d3b-49dd-bd51-d5b0647cfc5f",
      "devicePresetId": "79c2e5b9-7328-4fcf-aa4c-fba233481152",
      "devicePresetType":"MistLx",
      "sampleInterval": 30,
      "ffSetIds": "Test ffSEt Ids",
      "rollDiameter": 10.0,
      "rollDiameterUnits": "Test",
      "speedRatio": 0.55,
      "tachId": "dee5158a-30b0-4c12-b6b9-40cb91d1206d",
      "description": "Celcius"
    }
  ],
  "outcome": "GET worked successfully."
}




GET :- 
http://10.1.11.5:8088/presets/globalAsset?customerAccount=FEDEX EXPRESS

O/P :- 
{
  "customerAccount": "77777",
  "assetTypeName": "Test Asset Type",
  "assetPresetId": "dee5158a-30b0-4c12-b6b9-40cb91d1206d",
  "GlobalAssetPreset": [
    {
      "customerAccount": "77777",
      "assetTypeName": "Test Asset Type",
      "assetPresetId": "dee5158a-30b0-4c12-b6b9-40cb91d1206d",
      "pointLocationName": "Point Location Name",
      "assetPresetName": "d623b71a-6d3b-49dd-bd51-d5b0647cfc5f",
      "devicePresetId": "79c2e5b9-7328-4fcf-aa4c-fba233481152",
      "devicePresetType":"MistLx",
      "sampleInterval": 30,
      "ffSetIds": "Test ffSEt Ids",
      "rollDiameter": 10.0,
      "rollDiameterUnits": "Test",
      "speedRatio": 0.55,
      "tachId": "dee5158a-30b0-4c12-b6b9-40cb91d1206d",
      "description": "Celcius"
    }
  ],
  "outcome": "GET worked successfully."
}


Delete: http://localhost:8087/presets/globalAsset
---------------------------------------------------------

{	
	"customerAccount":"77777",
	"assetTypeName":"Test Asset preset type name",
	"assetPresetId":"ea04a419-be28-44b1-94f2-72fc37430251",
	"pointLocationName":"Test Pl Name",
	"assetPresetName":"Test Asset Preset Name",
	"devicePresetId":"0f8b854d-5ce0-4034-9c36-e29ff315bca7",
	"devicePresetType":"MistLx",
	"sampleInterval":10,
	"ffSetIds":"Test ffsetId",
	"rollDiameter":0.0,
	"rollDiameterUnits":"Test Roll Diam",
	"speedRatio":0.0,
	"tachId":"8a64f600-c222-430c-8cbe-2db387c9e71f",
	"description":"Test Desc"
}



O/P:- {"outcome":"Deleted Global Asset Preset successfully."}


Global Asset Preset -
----------------------
post : - 
http://localhost:8087/presets/globalAsset
-----------------------------------------------------------
{
  "customerAccount": "77777",
  "assetTypeName":"Test Asset Type",
  "assetPresetId":"dee5158a-30b0-4c12-b6b9-40cb91d1206d",
  "pointLocationName":"Point Location Name",
  "assetPresetName":"d623b71a-6d3b-49dd-bd51-d5b0647cfc5f",
  "devicePresetId":"79c2e5b9-7328-4fcf-aa4c-fba233481152",
  "devicePresetType":"MistLx",
  "sampleInterval":30,
  "ffSetIds":"Test ffSEt Ids",
  "rollDiameter":"10",
  "rollDiameterUnits":Test,
  "speedRatio":0.55,
  "tachId":"dee5158a-30b0-4c12-b6b9-40cb91d1206d",
  "description":"Celcius"
}

O/P :-  {"outcome":"New Global Asset Preset created successfully."}

PUT:-
http://localhost:8087/presets/globalAsset
----------------------------------------------------
O/P :- 
{
  "customerAccount": "77777",
  "assetTypeName":"Test Asset Type",
  "assetPresetId":"dee5158a-30b0-4c12-b6b9-40cb91d1206d",
  "pointLocationName":"Point Location Name",
  "assetPresetName":"d623b71a-6d3b-49dd-bd51-d5b0647cfc5f",
  "devicePresetId":"79c2e5b9-7328-4fcf-aa4c-fba233481152",
  "devicePresetType":"MistLx",
  "sampleInterval":30,
  "ffSetIds":"Test ffSEt Ids",
  "rollDiameter":"10",
  "rollDiameterUnits":Test,
  "speedRatio":0.55,
  "tachId":"dee5158a-30b0-4c12-b6b9-40cb91d1206d",
  "description":"Celcius"
}


O/P :-  {"outcome":"Updated Global Asset Preset successfully."}


----------------------------------SiteAssetPreset----------------------------------------
GET :- 
http://localhost:8087/presets/siteAsset?customerAccount=77777&siteId=8b086e15-371f-4a8d-bedb-c1b67b49be3e
&assetTypeName=Fan&assetPresetId=4a76f807-81b0-444c-8dc4-15b9d6db413f&pointLocationName=Test-123

O/P :- 
{
	"customerAccount":"77777",
	"siteId":"8b086e15-371f-4a8d-bedb-c1b67b49be3e",
	"SiteAssetPreset":[
		{
			"customerAccount":"77777",
			"siteId":"8b086e15-371f-4a8d-bedb-c1b67b49be3e",
			"assetTypeName":"Fan",
			"assetPresetId":"4a76f807-81b0-444c-8dc4-15b9d6db413f",
			"pointLocationName":"Test-123",
			"assetPresetName":"Test Asset 1",
			"devicePresetType":"MistLx",
			"devicePresetId":"919f7ae1-408a-48b0-9308-26ca567977c0",
			"sampleInterval":11,
			"ffSetIds":"{\"ff_sets\":[{\"ff_set_name\":\"FF Set Manual 2\",\"source\":\"Site FF Set\", \"units\":\"Orders\",\"frequencies\":[{\"Freq1\":86.26}]}]}",
			"rollDiameter":0.0,
			"rollDiameterUnits":"Test RollDiameter Units",
			"speedRatio":1.0,
			"tachId":"f9461272-1afe-4b92-9f75-5ba1ec948e9f",
			"description":"Test Desc"
		}
	],
	"outcome":"GET worked successfully."}



GET :- 
http://localhost:8087/presets/siteAsset?customerAccount=77777&siteId=8b086e15-371f-4a8d-bedb-c1b67b49be3e
&assetTypeName=Test Asset Type&assetPresetId=dee5158a-30b0-4c12-b6b9-40cb91d1206d

O/P :- 
{
	"customerAccount":"77777",
	"siteId":"8b086e15-371f-4a8d-bedb-c1b67b49be3e",
	"assetTypeName":"Test Asset preset type name",
	"SiteAssetPreset":[
		{	
			"customerAccount":"77777",
			"siteId":"8b086e15-371f-4a8d-bedb-c1b67b49be3e",
			"assetTypeName":"Test Asset preset type name",
			"assetPresetId":"ea04a419-be28-44b1-94f2-72fc37430251",
			"pointLocationName":"Test Pl Name",
			"assetPresetName":"Test Asset Preset Name",
			"devicePresetId":"0f8b854d-5ce0-4034-9c36-e29ff315bca7",
			"alarmEnabled":true,
			"sampleInterval":10,
			"ffSetIds":"Test ffsetId",
			"rollDiameter":0.0,
			"rollDiameterUnits":"Test Roll Diam",
			"speedRatio":0.0,
			"tachId":"8a64f600-c222-430c-8cbe-2db387c9e71f",
			"description":"Test Desc"
		}
	],
	"outcome":"GET worked successfully."
}



GET :- 
http://localhost:8087/presets/siteAsset?customerAccount=77777&siteId=8b086e15-371f-4a8d-bedb-c1b67b49be3e
&assetTypeName=Test Asset Type

O/P :- 
{
	"customerAccount":"77777",
	"siteId":"8b086e15-371f-4a8d-bedb-c1b67b49be3e",
	"assetTypeName":"Test Asset preset type name",
	"SiteAssetPreset":[
		{	
			"customerAccount":"77777",
			"siteId":"8b086e15-371f-4a8d-bedb-c1b67b49be3e",
			"assetTypeName":"Test Asset preset type name",
			"assetPresetId":"ea04a419-be28-44b1-94f2-72fc37430251",
			"pointLocationName":"Test Pl Name",
			"assetPresetName":"Test Asset Preset Name",
			"devicePresetId":"0f8b854d-5ce0-4034-9c36-e29ff315bca7",
			"alarmEnabled":true,
			"sampleInterval":10,
			"ffSetIds":"Test ffsetId",
			"rollDiameter":0.0,
			"rollDiameterUnits":"Test Roll Diam",
			"speedRatio":0.0,
			"tachId":"8a64f600-c222-430c-8cbe-2db387c9e71f",
			"description":"Test Desc"
		}
	],
	"outcome":"GET worked successfully."
}

GET :- 
http://localhost:8087/presets/siteAsset?customerAccount=77777&siteId=8b086e15-371f-4a8d-bedb-c1b67b49be3e

O/P :- 
{
	"customerAccount":"77777",
	"siteId":"8b086e15-371f-4a8d-bedb-c1b67b49be3e",
	"SiteAssetPreset":[
		{	
			"customerAccount":"77777",
			"siteId":"8b086e15-371f-4a8d-bedb-c1b67b49be3e",
			"assetTypeName":"Test Asset preset type name",
			"assetPresetId":"ea04a419-be28-44b1-94f2-72fc37430251",
			"pointLocationName":"Test Pl Name",
			"assetPresetName":"Test Asset Preset Name",
			"devicePresetId":"0f8b854d-5ce0-4034-9c36-e29ff315bca7",
			"alarmEnabled":true,
			"sampleInterval":10,
			"ffSetIds":"Test ffsetId",
			"rollDiameter":0.0,
			"rollDiameterUnits":"Test Roll Diam",
			"speedRatio":0.0,
			"tachId":"8a64f600-c222-430c-8cbe-2db387c9e71f",
			"description":"Test Desc"
		}
	],
	"outcome":"GET worked successfully."
}





Site Asset Preset -
----------------------
post : - 
http://localhost:8087/presets/siteAsset
-----------------------------------------------------------
[{
	"customerAccount":"77777",
	"siteId":"8b086e15-371f-4a8d-bedb-c1b67b49be3e",
	"assetTypeName":"Fan",
	"assetPresetId":"4a76f807-81b0-444c-8dc4-15b9d6db413f",
	"sampleInterval":11,
	"devicePresetType": "MistLx",
	"description":"Test Desc",
	"pointLocationName":"Test-123",
	"assetPresetName":"Test Asset 1",
	"devicePresetId":"919f7ae1-408a-48b0-9308-26ca567977c0",
	"ffSetIds":"{\"ff_sets\":[{\"ff_set_name\":\"FF Set Manual 2\",\"source\":\"Site FF Set\", \"units\":\"Orders\",\"frequencies\":[{\"Freq1\":86.26}]}]}",
	"rollDiameter":0.0,
	"rollDiameterUnits":"Test RollDiameter Units",
	"speedRatio":1.0,
	"tachId":"f9461272-1afe-4b92-9f75-5ba1ec948e9f"
}]

O/P :-  {"outcome":"New Site Asset Preset created successfully."}

PUT:-
http://localhost:8087/presets/siteAsset
----------------------------------------------------
O/P :- 
[{
	"customerAccount":"77777",
	"siteId":"8b086e15-371f-4a8d-bedb-c1b67b49be3e",
	"assetTypeName":"Fan",
	"assetPresetId":"4a76f807-81b0-444c-8dc4-15b9d6db413f",
	"sampleInterval":11,
	"devicePresetType": "MistLx",
	"description":"Test Desc",
	"pointLocationName":"Test-123",
	"assetPresetName":"Test Asset 1",
	"devicePresetId":"919f7ae1-408a-48b0-9308-26ca567977c0",
	"ffSetIds":"{\"ff_sets\":[{\"ff_set_name\":\"FF Set Manual 2\",\"source\":\"Site FF Set\", \"units\":\"Orders\",\"frequencies\":[{\"Freq1\":86.26}]}]}",
	"rollDiameter":0.0,
	"rollDiameterUnits":"Test RollDiameter Units",
	"speedRatio":1.0,
	"tachId":"f9461272-1afe-4b92-9f75-5ba1ec948e9f"
}]


O/P :-  {"outcome":"Updated Site Asset Preset successfully."}

Delete: http://localhost:8087/presets/siteAsset
---------------------------------------------------------
[{
	"customerAccount":"77777",
	"siteId":"8b086e15-371f-4a8d-bedb-c1b67b49be3e",
	"assetTypeName":"Fan",
	"assetPresetId":"4a76f807-81b0-444c-8dc4-15b9d6db413f",
	"sampleInterval":11,
	"devicePresetType": "MistLx",
	"description":"Test Desc",
	"pointLocationName":"Test-123",
	"assetPresetName":"Test Asset 1",
	"devicePresetId":"919f7ae1-408a-48b0-9308-26ca567977c0",
	"ffSetIds":"{\"ff_sets\":[{\"ff_set_name\":\"FF Set Manual 2\",\"source\":\"Site FF Set\", \"units\":\"Orders\",\"frequencies\":[{\"Freq1\":86.26}]}]}",
	"rollDiameter":0.0,
	"rollDiameterUnits":"Test RollDiameter Units",
	"speedRatio":1.0,
	"tachId":"f9461272-1afe-4b92-9f75-5ba1ec948e9f"
}]




O/P:- {"outcome":"Deleted Site Asset Preset successfully."}